<svg xmlns="http://www.w3.org/2000/svg" xmlns:xlink="http://www.w3.org/1999/xlink"  width="32" height="39" viewBox="0 0 32 39">

    <g fill="none" fill-rule="evenodd">
        <path fill="#444" d="M17.888 37.062c8.847-7.351 13.27-14.193 13.27-20.524C31.158 6.387 24.37.842 16 .842 7.629.842.842 5.99.842 16.538c0 6.573 4.415 13.424 13.244 20.551a3 3 0 0 0 3.802-.027z"/>
        <path fill="#FFF" fill-rule="nonzero" d="M18.115 37.967a3.368 3.368 0 0 1-4.242.031C4.655 30.637 0 23.493 0 16.538 0 6.163 6.489 0 16 0c9.36 0 16 6.427 16 16.538 0 6.709-4.658 13.837-13.885 21.43zm-1.07-1.3c8.877-7.304 13.27-14.029 13.27-20.13C30.316 7.37 24.442 1.685 16 1.685c-8.6 0-14.316 5.43-14.316 14.854 0 6.345 4.383 13.07 13.24 20.144.622.497 1.506.49 2.121-.015z"/>
    <circle cx="16" cy="16" r="10" stroke="black" stroke-width="0" fill="#fff" />
    <g transform="translate(5 5)" fill="none" fill-rule="evenodd">
        
        <path fill="#E82430" d="M9.118 15.022a.427.427 0 0 0-.427.433.44.44 0 0 0 .445.439.446.446 0 0 0 .428-.438.432.432 0 0 0-.446-.434m.443-5.8c0-.16-.01-.32.001-.477.04-.54.108-1.072.41-1.541.406-.631 1.372-.642 1.754.003.165.278.292.601.342.919.205 1.323.052 2.621-.392 3.879-.15.423-.377.82-.57 1.228-.124.265-.035.503.222.598.206.076.396-.019.544-.284.85-1.513 1.158-3.152 1.095-4.869-.022-.6-.131-1.192-.422-1.73-.373-.69-.942-1.046-1.74-1.03-.78.016-1.317.392-1.66 1.067-.36.707-.437 1.473-.418 2.248.03 1.188.18 2.363.515 3.507.265.904.62 1.768 1.308 2.444.545.536 1.179.843 1.97.684a2.648 2.648 0 0 0 1.039-.48 5.156 5.156 0 0 0 1.418-1.586c.104-.178.044-.384-.117-.506a.39.39 0 0 0-.52.025c-.057.053-.102.12-.146.186-.349.523-.759.986-1.293 1.33-.518.333-1.023.328-1.52-.027-.56-.401-.863-.988-1.104-1.607-.499-1.279-.672-2.62-.716-3.982M19 11.033a4.59 4.59 0 0 1-1.371 3.277c-1.118 1.129-2.235 2.258-3.374 3.365-1.132 1.1-2.5 1.5-4.056 1.256-1.114-.174-1.998-.755-2.773-1.555-.985-1.018-1.996-2.01-3.001-3.01-1.08-1.072-1.547-2.372-1.398-3.876.109-1.1.584-2.043 1.372-2.827 1.078-1.072 2.143-2.158 3.227-3.225 1.377-1.357 3.01-1.748 4.855-1.196.78.233 1.42.711 1.99 1.294 1.065 1.086 2.158 2.144 3.221 3.231.878.897 1.297 1.993 1.308 3.266"/>
        <path fill="#FEFEFE" d="M9.107 15.235c.273 0 .482.204.481.469a.48.48 0 0 1-.461.472.475.475 0 0 1-.48-.474.46.46 0 0 1 .46-.467"/>
    </g>

        
    </g>
</svg>
