<svg xmlns="http://www.w3.org/2000/svg" xmlns:xlink="http://www.w3.org/1999/xlink"  width="32" height="39" viewBox="0 0 32 39">

    <g fill="none" fill-rule="evenodd">
        <path fill="#444" d="M17.888 37.062c8.847-7.351 13.27-14.193 13.27-20.524C31.158 6.387 24.37.842 16 .842 7.629.842.842 5.99.842 16.538c0 6.573 4.415 13.424 13.244 20.551a3 3 0 0 0 3.802-.027z"/>
        <path fill="#FFF" fill-rule="nonzero" d="M18.115 37.967a3.368 3.368 0 0 1-4.242.031C4.655 30.637 0 23.493 0 16.538 0 6.163 6.489 0 16 0c9.36 0 16 6.427 16 16.538 0 6.709-4.658 13.837-13.885 21.43zm-1.07-1.3c8.877-7.304 13.27-14.029 13.27-20.13C30.316 7.37 24.442 1.685 16 1.685c-8.6 0-14.316 5.43-14.316 14.854 0 6.345 4.383 13.07 13.24 20.144.622.497 1.506.49 2.121-.015z"/>
    <circle cx="16" cy="16" r="10" stroke="black" stroke-width="0" fill="#fff" />
    <g transform="translate(5 5)" fill="none" fill-rule="evenodd">
        
        <path fill="#1E4BA3" fill-rule="nonzero" d="M15.598 14.756a1.455 1.455 0 0 1 2.024.01 1.375 1.375 0 0 1-.01 1.978A8.025 8.025 0 0 1 12.017 19C7.584 19 4 15.43 4 11.039c0-4.39 3.584-7.961 8.018-7.961 2.16 0 4.187.854 5.68 2.341a1.375 1.375 0 0 1-.02 1.977c-.564.54-1.47.532-2.024-.02a5.13 5.13 0 0 0-3.636-1.502 5.16 5.16 0 0 0-5.155 5.165 5.16 5.16 0 0 0 5.155 5.165 5.128 5.128 0 0 0 3.58-1.448z"/>
        <path fill="#204CA8" d="M14.479 13.998a3.718 3.718 0 0 1-2.106.654c-2.011 0-3.642-1.592-3.642-3.557 0-1.965 1.63-3.558 3.642-3.558.818 0 1.573.263 2.18.708v.38h1.742c.445 0 .805.352.805.786 0 .434-.36.786-.805.786h-1.74v1.796h1.74c.445 0 .805.353.805.787 0 .434-.36.786-.805.786h-1.74v.335s-.038.071-.076.097"/>
    </g>

        
    </g>
</svg>
