<svg xmlns="http://www.w3.org/2000/svg" xmlns:xlink="http://www.w3.org/1999/xlink"  width="32" height="39" viewBox="0 0 32 39">

    <g fill="none" fill-rule="evenodd">
        <path fill="#444" d="M17.888 37.062c8.847-7.351 13.27-14.193 13.27-20.524C31.158 6.387 24.37.842 16 .842 7.629.842.842 5.99.842 16.538c0 6.573 4.415 13.424 13.244 20.551a3 3 0 0 0 3.802-.027z"/>
        <path fill="#FFF" fill-rule="nonzero" d="M18.115 37.967a3.368 3.368 0 0 1-4.242.031C4.655 30.637 0 23.493 0 16.538 0 6.163 6.489 0 16 0c9.36 0 16 6.427 16 16.538 0 6.709-4.658 13.837-13.885 21.43zm-1.07-1.3c8.877-7.304 13.27-14.029 13.27-20.13C30.316 7.37 24.442 1.685 16 1.685c-8.6 0-14.316 5.43-14.316 14.854 0 6.345 4.383 13.07 13.24 20.144.622.497 1.506.49 2.121-.015z"/>
    <circle cx="16" cy="16" r="10" stroke="black" stroke-width="0" fill="#fff" />
    <defs>
        <path id="a" d="M0 .02h4.137V4.01H0z"/>
        <path id="c" d="M.028.02h1.829v3.997H.028z"/>
        <path id="e" d="M0 4.257h21.952V.052H0z"/>
    </defs>
    <g transform="translate(5 5)" fill="none" fill-rule="evenodd">
        
        <g transform="translate(0 9)">
            <path fill="#005CAA" d="M15.831.919c-.732 0-1.327.573-1.327 1.278 0 .705.595 1.278 1.327 1.278s1.328-.573 1.328-1.278c0-.705-.596-1.278-1.328-1.278m0 3.338c-1.18 0-2.14-.924-2.14-2.06 0-1.136.96-2.06 2.14-2.06 1.18 0 2.14.924 2.14 2.06 0 1.136-.96 2.06-2.14 2.06M21.952 4.1h-.813V1.974c0-.581-.447-1.054-.997-1.054s-.997.473-.997 1.054v2.128h-.813V1.973c0-1.013.812-1.837 1.81-1.837s1.81.824 1.81 1.837v2.128z"/>
            <path fill="#23B0E6" d="M9.524 4.16c-1.142 0-2.072-.895-2.072-1.995S8.382.17 9.524.17c1.102 0 2.01.828 2.07 1.886l.012.22H8.441v-.417h2.692C10.984 1.13 10.317.587 9.524.587c-.903 0-1.639.708-1.639 1.578 0 .87.736 1.578 1.64 1.578.496 0 .96-.213 1.274-.585l.336.262c-.395.47-.982.74-1.61.74"/>
            <g transform="translate(0 .136)">
                <mask id="b" fill="#fff">
                    <use xlink:href="#a"/>
                </mask>
                <path fill="#23B0E6" d="M2.078 4.011c-.137 0-.274-.013-.411-.04a2.064 2.064 0 0 1-1.318-.85A1.922 1.922 0 0 1 .04 1.625C.149 1.1.463.65.924.354c.916-.587 2.15-.383 2.809.465l.136.177-2.634 1.69-.24-.347L3.235.9a1.687 1.687 0 0 0-2.07-.199A1.544 1.544 0 0 0 .708 2.89c.243.351.613.59 1.043.672.43.083.866 0 1.23-.234.414-.265.677-.69.723-1.167l.432.038a1.977 1.977 0 0 1-.914 1.476c-.345.222-.74.336-1.145.336" mask="url(#b)"/>
            </g>
            <path fill="#23B0E6" d="M5.773 3.734l.053.036.044-.025a.215.215 0 0 0-.097-.011m.012.416h-.013c-.196-.008-.304-.173-.324-.206l-.013-.028L4.025.44 4.43.288l1.4 3.453a.043.043 0 0 0 .003.004.031.031 0 0 0-.003-.002l.008.021-.011.005.286.19c-.112.156-.237.19-.328.19"/>
            <path fill="#23B0E6" d="M6.137 3.913l-.405-.146L7.127.187l.406.147z"/>
            <g transform="translate(5.69 .032)">
                <mask id="d" fill="#fff">
                    <use xlink:href="#c"/>
                </mask>
                <path fill="#23B0E6" d="M.245 4.017a.223.223 0 0 1-.076-.013.206.206 0 0 1-.127-.269L1.437.155a.22.22 0 0 1 .28-.121c.111.04.168.16.126.268L.448 3.882a.217.217 0 0 1-.203.135" mask="url(#d)"/>
            </g>
            <path fill="#23B0E6" d="M12.22 2.23a.213.213 0 0 1-.217-.208c0-.668.197-1.157.586-1.455.57-.437 1.328-.276 1.36-.269.116.026.19.138.162.25a.217.217 0 0 1-.259.157c-.008-.002-.592-.121-.996.19-.278.215-.419.594-.419 1.127a.213.213 0 0 1-.217.208"/>
            <mask id="f" fill="#fff">
                <use xlink:href="#e"/>
            </mask>
            <path fill="#23B0E6" d="M12.003 4.095h.434V.261h-.434zM1.114 2.856a.219.219 0 0 1-.18-.093.204.204 0 0 1 .06-.29L3.387.939a.222.222 0 0 1 .301.058.204.204 0 0 1-.06.289L1.234 2.82a.222.222 0 0 1-.12.035M11.378 2.276l-2.992-.007a.213.213 0 0 1-.216-.21c0-.114.097-.207.217-.207l2.991.007c.12 0 .217.093.216.209a.213.213 0 0 1-.216.208" mask="url(#f)"/>
        </g>
    </g>

        
    </g>
</svg>
