<svg xmlns="http://www.w3.org/2000/svg" xmlns:xlink="http://www.w3.org/1999/xlink"  width="32" height="39" viewBox="0 0 32 39">

    <g fill="none" fill-rule="evenodd">
        <path fill="#FDB00D" d="M17.888 37.062c8.847-7.351 13.27-14.193 13.27-20.524C31.158 6.387 24.37.842 16 .842 7.629.842.842 5.99.842 16.538c0 6.573 4.415 13.424 13.244 20.551a3 3 0 0 0 3.802-.027z"/>
        <path fill="#FFF" fill-rule="nonzero" d="M18.115 37.967a3.368 3.368 0 0 1-4.242.031C4.655 30.637 0 23.493 0 16.538 0 6.163 6.489 0 16 0c9.36 0 16 6.427 16 16.538 0 6.709-4.658 13.837-13.885 21.43zm-1.07-1.3c8.877-7.304 13.27-14.029 13.27-20.13C30.316 7.37 24.442 1.685 16 1.685c-8.6 0-14.316 5.43-14.316 14.854 0 6.345 4.383 13.07 13.24 20.144.622.497 1.506.49 2.121-.015z"/>
    <circle cx="16" cy="16" r="10" stroke="black" stroke-width="0" fill="#fff" />
    <defs>
        <path id="a" d="M.038.005h2.525v4.322H.038z"/>
    </defs>
    <g transform="translate(5 5)" fill="none" fill-rule="evenodd">
        
        <g transform="translate(17.844 9.22)">
            <mask id="b" fill="#fff">
                <use xlink:href="#a"/>
            </mask>
            <path fill="#9AC846" d="M.314 4.327c-.092 0-.185-.005-.276-.016L.1 3.805c.07.009.143.013.214.013.952 0 1.726-.741 1.726-1.652C2.04 1.302 1.124.515.118.515v-.51c1.302 0 2.445 1.01 2.445 2.161 0 1.192-1.009 2.161-2.25 2.161" mask="url(#b)"/>
        </g>
        <path fill="#91B4C3" d="M7.49 7.302s1.221-1.104 2.224-1.188c0 0 1.761-.187 2.816.084 0 0 1.526.484 2.729 1.63 0 0 2.101.425 2.633 1.206 0 0 .558.73-.052 1.409 0 0-.122.17-.34.255H7.447s-1.02-.102-1.011-.883V8.09s.096-.814 1.055-.789"/>
        <path fill="#FFF" d="M7.45 10.647h10.04a.773.773 0 0 0 .307-.233l.003-.005c.575-.639.072-1.316.05-1.345-.516-.757-2.58-1.182-2.602-1.186l-.015-.003-.01-.01c-1.18-1.124-2.694-1.613-2.71-1.618-.372-.096-.88-.145-1.507-.145-.69 0-1.28.062-1.286.062-.974.083-2.182 1.164-2.194 1.175l-.015.014h-.022c-.881-.023-.993.684-1 .742v1.72c-.004.302.154.533.47.687.23.112.465.142.491.145zm10.06.102H7.442c-.01-.002-1.068-.117-1.058-.935V8.086A1 1 0 0 1 7.47 7.25c.152-.135 1.28-1.107 2.238-1.188.005 0 .6-.063 1.297-.063.636 0 1.153.05 1.537.15.019.005 1.545.498 2.742 1.632.206.042 2.13.46 2.65 1.224.005.005.574.767-.054 1.469a.875.875 0 0 1-.362.27l-.01.004z"/>
        <path fill="#91B4C3" d="M10.19 10.412c0 .734-.61 1.328-1.364 1.328-.754 0-1.365-.594-1.365-1.328 0-.734.611-1.329 1.365-1.329.753 0 1.364.595 1.364 1.329"/>
        <path fill="#FFF" d="M8.826 9.16c-.71 0-1.286.561-1.286 1.252 0 .69.577 1.252 1.286 1.252.709 0 1.286-.562 1.286-1.252S9.535 9.16 8.826 9.16m0 2.657c-.796 0-1.443-.63-1.443-1.405s.647-1.405 1.443-1.405c.795 0 1.443.63 1.443 1.405s-.648 1.405-1.443 1.405"/>
        <path fill="#FFF" d="M9.441 10.412c0 .33-.275.6-.615.6a.607.607 0 0 1-.616-.6c0-.331.276-.6.616-.6.34 0 .615.269.615.6"/>
        <path fill="#91B4C3" d="M16.84 10.412c0 .734-.612 1.328-1.365 1.328-.754 0-1.365-.594-1.365-1.328 0-.734.611-1.329 1.365-1.329.753 0 1.364.595 1.364 1.329"/>
        <path fill="#FFF" d="M15.475 9.16c-.71 0-1.286.561-1.286 1.252 0 .69.577 1.252 1.286 1.252.709 0 1.286-.562 1.286-1.252s-.577-1.252-1.286-1.252m0 2.657c-.796 0-1.443-.63-1.443-1.405s.647-1.405 1.443-1.405c.795 0 1.443.63 1.443 1.405s-.648 1.405-1.443 1.405"/>
        <path fill="#FFF" d="M16.09 10.412c0 .33-.276.6-.615.6a.607.607 0 0 1-.616-.6c0-.331.276-.6.616-.6.34 0 .615.269.615.6M9.54 6.758h.941V8.16H8.866s-.547-.218-.568-.482v-.025c.012-.275.804-.926 1.242-.895"/>
        <path fill="#FFF" d="M8.872 8.135h1.583V6.783H9.54a.493.493 0 0 0-.032 0c-.442 0-1.173.625-1.185.871a.18.18 0 0 0 0 .022c.02.234.496.437.549.459m1.61.05H8.865c-.003 0-.007 0-.01-.002-.023-.01-.562-.227-.584-.503v-.028c.013-.3.83-.95 1.27-.919h.94c.014 0 .025.011.025.025V8.16a.026.026 0 0 1-.026.025M11.174 6.757V8.16h3.034s.239-.338-.047-.544c0 0-.973-.76-1.679-.859h-1.308z"/>
        <path fill="#FFF" d="M11.2 8.135h2.994c.037-.059.189-.328-.049-.5-.01-.008-.976-.756-1.667-.853h-1.277v1.353zm3.008.05h-3.034a.026.026 0 0 1-.026-.025V6.757c0-.014.012-.025.026-.025h1.308c.71.1 1.655.833 1.695.864.302.218.056.574.053.578a.026.026 0 0 1-.022.01z"/>
        <path fill="#F46060" d="M6.936 10.307l-.02-.26c.032-.002.066-.003.1-.003v.26c-.028 0-.054.001-.08.003"/>
        <path fill="#9AC846" d="M6.927 10.07H5.809V8.783h1.126a.242.242 0 0 0 .245-.238.242.242 0 0 0-.245-.239H5.81v-.41H4.57s-.863-.008-.863.739v1.647s.052.65.863.65h1.238v-.386h1.16-.033a.242.242 0 0 0 .245-.238.242.242 0 0 0-.245-.239"/>
        <path fill="#FFF" d="M3.786 10.278c.004.046.076.577.784.577h1.16v-.385h1.205a.164.164 0 0 0 .167-.162.164.164 0 0 0-.167-.162H5.731v-1.44h1.204a.164.164 0 0 0 .167-.161.164.164 0 0 0-.167-.162H5.731v-.41H4.57c-.006 0-.387 0-.615.22a.59.59 0 0 0-.17.442v1.643zm2.1.73H4.57c-.699 0-.921-.471-.941-.72V8.635c0-.227.073-.412.218-.552.274-.265.707-.263.724-.263h1.317v.41h1.047a.32.32 0 0 1 .324.315.32.32 0 0 1-.324.315H5.888v1.133H6.935a.32.32 0 0 1 .324.315.319.319 0 0 1-.291.313v.002H5.887v.385z"/>
        <path fill="#9AC846" d="M4.243 13.546h-.941c-1.27 0-2.302-.96-2.302-2.142S2.033 9.26 3.302 9.26h.39v.51h-.39c-.981 0-1.779.732-1.779 1.633 0 .9.798 1.633 1.779 1.633h.941v.51z"/>
        <path fill="#FFF" d="M17.86 13.597h.27v-.692h-.27zM4.19 13.597h.271v-.692h-.27z"/>
        <g fill="#9AC846">
            <path d="M5.616 15.012a.155.155 0 0 1-.157-.153v-2.367c0-.085.07-.153.157-.153s.157.068.157.153v2.367c0 .085-.07.153-.157.153M6.172 15.012a.155.155 0 0 1-.157-.153v-2.367c0-.085.07-.153.157-.153s.157.068.157.153v2.367c0 .085-.07.153-.157.153"/>
            <path d="M6.172 13.573h-.556a.155.155 0 0 1-.157-.152c0-.085.07-.153.157-.153h.556c.087 0 .157.068.157.153 0 .084-.07.152-.157.152M4.848 14.32c-.221 0-.399-.042-.41-.044a.154.154 0 0 1-.12-.149v-1.481c0-.085.07-.153.156-.153h.76c.087 0 .158.068.158.153 0 .084-.07.153-.157.153H4.63v1.2c.14.019.375.033.56-.04a.158.158 0 0 1 .205.086.152.152 0 0 1-.087.199c-.15.058-.315.076-.46.076"/>
        </g>
        <g fill="#9AC846">
            <path d="M7.492 12.669c-.374 0-.61-.084-.622-.088a.152.152 0 0 1-.093-.196c.03-.08.12-.12.201-.09.005.001.28.095.698.06a.155.155 0 0 1 .17.14.154.154 0 0 1-.144.165 2.576 2.576 0 0 1-.21.009M7.883 12.998H6.706a.155.155 0 0 1-.157-.153c0-.084.07-.153.157-.153h1.177c.087 0 .157.069.157.153 0 .085-.07.153-.157.153"/>
            <path d="M7.353 13.308a.283.283 0 0 0-.274.29c0 .16.123.29.274.29.151 0 .274-.13.274-.29 0-.16-.123-.29-.274-.29m0 .915a.626.626 0 1 1 .001-1.252.626.626 0 0 1-.001 1.252M8.324 14.5a.155.155 0 0 1-.157-.152v-1.91c0-.085.07-.153.157-.153.086 0 .156.068.156.153v1.91c0 .084-.07.153-.156.153"/>
            <path d="M8.823 13.573h-.5a.155.155 0 0 1-.156-.152c0-.085.07-.153.157-.153h.499c.086 0 .157.068.157.153 0 .084-.07.152-.157.152M7.305 15.077c-.157 0-.257-.122-.283-.237a.148.148 0 0 1-.004-.03l-.01-.504a.155.155 0 0 1 .153-.155.155.155 0 0 1 .16.15l.01.47 1.055-.02a.155.155 0 0 1 .16.15.155.155 0 0 1-.154.155l-1.081.021h-.006"/>
        </g>
        <g fill="#9AC846">
            <path d="M9.193 14.112a.159.159 0 0 1-.11-.044.15.15 0 0 1-.001-.216c.556-.545.777-.862.864-1.032a.909.909 0 0 0 .018-.038H9.33a.155.155 0 0 1-.156-.153c0-.085.07-.153.156-.153h.82c.056 0 .108.029.136.076.095.16.002.552-.982 1.515a.159.159 0 0 1-.11.045"/>
            <path d="M10.292 14.023a.159.159 0 0 1-.102-.037c-.54-.453-.534-.584-.531-.64a.156.156 0 0 1 .164-.146c.077.004.139.061.148.133.036.066.228.258.424.422a.15.15 0 0 1 .016.215.158.158 0 0 1-.119.053M10.88 13.38h-.55a.155.155 0 0 1-.156-.153c0-.084.07-.153.157-.153h.55c.086 0 .156.069.156.153 0 .085-.07.153-.157.153"/>
            <path d="M10.88 14.382a.155.155 0 0 1-.157-.153v-1.752c0-.085.07-.153.157-.153s.157.068.157.153v1.752c0 .084-.07.153-.157.153M10.935 15.067H9.842a.294.294 0 0 1-.29-.265v-.573c0-.084.071-.153.158-.153.086 0 .157.069.157.153v.533h1.068c.086 0 .157.068.157.152 0 .085-.07.153-.157.153"/>
        </g>
        <g fill="#9AC846">
            <path d="M11.432 14.456a.158.158 0 0 1-.111-.045.15.15 0 0 1 0-.216c.828-.808.97-1.213.99-1.35h-.81a.155.155 0 0 1-.157-.153c0-.084.07-.152.157-.152h.933c.047 0 .09.02.12.054.092.106.288.55-1.011 1.817a.159.159 0 0 1-.111.045M12.984 15.018a.155.155 0 0 1-.157-.152v-2.428c0-.085.07-.153.157-.153.086 0 .156.068.156.153v2.428c0 .084-.07.152-.156.152"/>
        </g>
        <g fill="#9AC846">
            <path d="M14.678 12.558c-.374 0-.61-.084-.622-.088a.152.152 0 0 1-.093-.196c.03-.08.12-.12.201-.09.005.001.28.095.698.06a.155.155 0 0 1 .17.14.154.154 0 0 1-.143.165 2.576 2.576 0 0 1-.21.009M13.716 13.61a.157.157 0 0 1-.147-.1.152.152 0 0 1 .092-.197c.487-.177.784-.327.96-.434h-.696a.155.155 0 0 1-.157-.153c0-.084.07-.152.157-.152h1.09c.047 0 .09.02.12.055a.15.15 0 0 1 .034.125c-.02.109-.198.408-1.398.846a.161.161 0 0 1-.055.01"/>
            <path d="M15.265 13.56a.16.16 0 0 1-.062-.011c-.71-.294-.694-.45-.686-.525a.156.156 0 0 1 .172-.136c.068.007.12.054.136.115.06.055.283.174.501.264.08.033.117.123.083.2a.157.157 0 0 1-.144.094M15.52 13.906h-2.022a.155.155 0 0 1-.157-.152c0-.085.07-.153.157-.153h2.023c.086 0 .157.068.157.153 0 .084-.07.152-.157.152"/>
            <path d="M14.545 14.163a.155.155 0 0 1-.157-.153v-.205c0-.085.07-.153.157-.153s.157.068.157.153v.205c0 .085-.07.153-.157.153"/>
            <path d="M14.514 14.319c-.234 0-.432.133-.432.291 0 .158.198.291.432.291.234 0 .431-.133.431-.291 0-.158-.197-.291-.431-.291m0 .916c-.418 0-.746-.275-.746-.625s.328-.625.746-.625.745.275.745.625-.327.625-.745.625"/>
        </g>
        <g fill="#9AC846">
            <path d="M16.003 14.112a.159.159 0 0 1-.11-.044.15.15 0 0 1-.001-.216c.613-.6.813-.92.878-1.07h-.674a.155.155 0 0 1-.157-.153c0-.085.07-.153.157-.153h.854c.055 0 .105.027.134.072.102.16.016.554-.97 1.52a.159.159 0 0 1-.11.044"/>
            <path d="M17.074 13.998a.159.159 0 0 1-.099-.034c-.522-.416-.514-.572-.512-.623a.155.155 0 0 1 .165-.145c.08.003.142.065.149.14.03.065.211.244.397.391a.15.15 0 0 1 .022.215.158.158 0 0 1-.122.056M17.69 13.38h-.549a.155.155 0 0 1-.157-.153c0-.084.07-.153.157-.153h.55c.086 0 .156.069.156.153 0 .085-.07.153-.157.153M17.795 15.067h-1.138c-.165 0-.266-.13-.291-.25a.148.148 0 0 1-.003-.03v-.541c0-.084.07-.153.157-.153s.157.069.157.153v.516h1.118c.087 0 .157.068.157.152 0 .085-.07.153-.157.153"/>
            <path d="M17.69 14.399a.155.155 0 0 1-.157-.153v-1.853c0-.084.07-.153.157-.153s.157.069.157.153v1.853c0 .084-.07.153-.157.153"/>
        </g>
    </g>

        
    </g>
</svg>
