<svg xmlns="http://www.w3.org/2000/svg" xmlns:xlink="http://www.w3.org/1999/xlink"  width="32" height="39" viewBox="0 0 32 39">

    <g fill="none" fill-rule="evenodd">
        <path fill="#444" d="M17.888 37.062c8.847-7.351 13.27-14.193 13.27-20.524C31.158 6.387 24.37.842 16 .842 7.629.842.842 5.99.842 16.538c0 6.573 4.415 13.424 13.244 20.551a3 3 0 0 0 3.802-.027z"/>
        <path fill="#FFF" fill-rule="nonzero" d="M18.115 37.967a3.368 3.368 0 0 1-4.242.031C4.655 30.637 0 23.493 0 16.538 0 6.163 6.489 0 16 0c9.36 0 16 6.427 16 16.538 0 6.709-4.658 13.837-13.885 21.43zm-1.07-1.3c8.877-7.304 13.27-14.029 13.27-20.13C30.316 7.37 24.442 1.685 16 1.685c-8.6 0-14.316 5.43-14.316 14.854 0 6.345 4.383 13.07 13.24 20.144.622.497 1.506.49 2.121-.015z"/>
    <circle cx="16" cy="16" r="10" stroke="black" stroke-width="0" fill="#fff" />
    <defs>
        <linearGradient id="a" x1="15.431%" x2="88.53%" y1="26.392%" y2="70.243%">
            <stop offset="0%" stop-color="#FCD110"/>
            <stop offset="100%" stop-color="#FC8810"/>
        </linearGradient>
        <linearGradient id="b" x1="100%" x2="8.016%" y1="18.577%" y2="78.102%">
            <stop offset="0%" stop-color="#0664AA"/>
            <stop offset="100%" stop-color="#064C80"/>
        </linearGradient>
        <path id="c" d="M0 .118h5.892V5.55H0z"/>
        <linearGradient id="d" x1="91.324%" x2="5.755%" y1="15.422%" y2="84.317%">
            <stop offset="0%" stop-color="#064C80"/>
            <stop offset="100%" stop-color="#0664AA"/>
        </linearGradient>
    </defs>
    <g transform="translate(5 5)" fill="none" fill-rule="evenodd">
        
        <path fill="url(#a)" d="M3.456 5.487s1.478.41.456.993c0 0 1.98-.899 1.273-1.829 0 0-.212-.268-1.32-.48 0 0-.865-.127-1.062-.387 0 0-.3-.363.176-.592 0 0-1.366.294-1.498 1.263 0 0-.172.527.544.717 0 0 1.334.284 1.43.315" transform="translate(1 6)"/>
        <path fill="url(#b)" d="M6.364.126c0-.062-.114.678-1.32 1.198 0 0-.763.209-1.463.3 0 0-2.515.3-2.61 1.656 0 0-.114 1.213.657 1.686 0 0-.533-1.183 1.309-1.765 0 0 2.758-.57 3.427-1.545 0 0 .361-.463.126-1.23l-.126-.3z" transform="translate(1 6)"/>
        <g transform="translate(1 10.488)">
            <mask id="e" fill="#fff">
                <use xlink:href="#c"/>
            </mask>
            <path fill="url(#d)" d="M3.298 3.89s1.974-.415 2.422-1.462c0 0 .654-1.52-.585-2.31-.05-.04.654.482-.406 1.335 0 0-.405.472-1.892.86 0 0-2.6.283-2.81 1.776 0 0-.062 1.356 0 1.461 0 0 .085-1.135 3.271-1.66z" mask="url(#e)"/>
        </g>
        <path fill="#0664AA" d="M8.942 10.499h.755l.199-.62H7.569l-.22.62h.807l-.63 2.491h.84zM9.697 10.678h.713l-.061.46s.27-.64.993-.46l-.188.61s-.745-.358-1.007.998l-.136.704h-.786l.472-2.312zM11.542 10.804s.545-.285 1.184-.158c0 0 .692.126.692.715l-.23 1.114s-.063.452-.011.515h-.697l.047-.326s-.398.463-.985.379c0 0-.808-.163-.483-.978 0 0 .22-.673 1.646-.515 0 0 .063-.484-.702-.389 0 0-.398.084-.514.19l.053-.547z"/>
        <path fill="#FFF" d="M11.73 12.202s-.16.34.294.315c0 0 .63-.175.545-.568 0 0-.623-.159-.839.253z"/>
        <path fill="#0664AA" d="M15.792 9.705s-.994-.475-1.415.41c0 0-.094.19-.144.53h-.47l-.14.604h.502l-.393 1.741h.802l.378-1.741h.88l-.346 1.741h.786l.393-1.741h.582l.173-.603h-.648s-.028-.547.648-.452l.189-.505s-1.085-.346-1.447.363c0 0-.162.323-.226.594h-.874s-.032-.625.629-.436l.141-.505zM17.726 10.646l-.503 2.344h.77l.504-2.344zM17.908 9.705l-.119.579h.77l.125-.579zM20.965 10.793s-1.093-.52-1.855.3c0 0-.362.386-.362.883 0 0-.047.749.747 1.048 0 0 .5.134.92-.034l.196-.58s-1.033.413-1.061-.529c0 0 .098-.954 1.219-.588l.196-.5z"/>
    </g>

        
    </g>
</svg>
