<svg xmlns="http://www.w3.org/2000/svg" xmlns:xlink="http://www.w3.org/1999/xlink"  width="32" height="39" viewBox="0 0 32 39">

    <g fill="none" fill-rule="evenodd">
        <path fill="#FDB00D" d="M17.888 37.062c8.847-7.351 13.27-14.193 13.27-20.524C31.158 6.387 24.37.842 16 .842 7.629.842.842 5.99.842 16.538c0 6.573 4.415 13.424 13.244 20.551a3 3 0 0 0 3.802-.027z"/>
        <path fill="#FFF" fill-rule="nonzero" d="M18.115 37.967a3.368 3.368 0 0 1-4.242.031C4.655 30.637 0 23.493 0 16.538 0 6.163 6.489 0 16 0c9.36 0 16 6.427 16 16.538 0 6.709-4.658 13.837-13.885 21.43zm-1.07-1.3c8.877-7.304 13.27-14.029 13.27-20.13C30.316 7.37 24.442 1.685 16 1.685c-8.6 0-14.316 5.43-14.316 14.854 0 6.345 4.383 13.07 13.24 20.144.622.497 1.506.49 2.121-.015z"/>
    <circle cx="16" cy="16" r="10" stroke="black" stroke-width="0" fill="#fff" />
    <defs>
        <path id="a" d="M0 .022h13.345v9.717H0z"/>
        <linearGradient id="b" x1="0%" y1="63.773%" y2="33.142%">
            <stop offset="0%" stop-color="#4EC3DE"/>
            <stop offset="100%" stop-color="#2C8FC0"/>
        </linearGradient>
        <linearGradient id="d" x1="56.82%" x2="50%" y1="0%" y2="100%">
            <stop offset="0%" stop-color="#0390BF"/>
            <stop offset="100%" stop-color="#0764AB"/>
        </linearGradient>
        <path id="e" d="M.085.056h2.933v2.063H.085z"/>
    </defs>
    <g transform="translate(5 5)" fill="none" fill-rule="evenodd">
        
        <g transform="translate(4 8.722)">
            <mask id="c" fill="#fff">
                <use xlink:href="#a"/>
            </mask>
            <path fill="url(#b)" d="M13.105.022S15.18 6.574 7.127 9.4c0 0-4.945 1.443-6.773-1.623 0 0-.985-1.924.332-4.148 0 0-.513 2.765 2.598 3.306 0 0 5.551 2.405 9.821-6.913z" mask="url(#c)"/>
        </g>
        <path fill="#FF8C00" d="M16.102 6.834s.892 1.18 1.014 1.975c0 0-1.86 4.303-4.903 6.217 0 0 3.578-3.285 3.89-6.968V6.834z"/>
        <path fill="url(#d)" d="M4.598 5.863l-.605.806.629.335c-.397.15-1.388 1.202-1.388 1.202-1.678 1.683-.244 3.156-.244 3.156C-.884 10.22 1.851 5.38 1.851 5.38l.507.343.64-.823.08-.092c.07-.092.236-.084.369.016s.183.256.111.347l-.685.867.574.335.745-.958c.071-.091.237-.084.37.016.132.1.182.256.111.348l-.075.084z" transform="translate(4 4)"/>
        <path fill="#AFDA25" d="M13.403 5.42s2.83 4.51-.984 8.295c0 0-2.653 2.309-5.124 1.978 0 0 2.486.962 5.43-.992 0 0 2.76-2.54 3.194-5.268 0 0 .412-1.33 0-2.728 0 0-.778-.856-2.516-1.285M13.54 4.597c0 .33-.297.598-.663.598-.367 0-.664-.268-.664-.598 0-.33.297-.597.664-.597.366 0 .663.267.663.597M10.925 4.51c0 .282-.254.51-.567.51-.312 0-.566-.228-.566-.51 0-.282.254-.51.566-.51.313 0 .567.228.567.51"/>
        <path fill="#AFDA25" d="M13.174 5.95c0 .143-.148.26-.332.26-.183 0-.331-.117-.331-.26 0-.143.148-.26.331-.26.184 0 .332.117.332.26"/>
        <path fill="#FFF" d="M14.775 6.638a.613.613 0 0 1-.617.608.613.613 0 0 1-.618-.608c0-.336.277-.609.618-.609.34 0 .617.273.617.609M15.187 8.329c0 .149-.123.27-.274.27a.273.273 0 0 1-.275-.27c0-.15.123-.271.275-.271.151 0 .274.121.274.27"/>
        <g transform="translate(14.98 5.746)">
            <mask id="f" fill="#fff">
                <use xlink:href="#e"/>
            </mask>
            <path fill="#FFF" d="M3.01.863c.087.556-.494 1.107-1.3 1.231-.804.124-1.528-.226-1.616-.783C.006.755.587.204 1.392.081c.805-.124 1.53.226 1.617.782" mask="url(#f)"/>
        </g>
    </g>

        
    </g>
</svg>
