<svg xmlns="http://www.w3.org/2000/svg" xmlns:xlink="http://www.w3.org/1999/xlink"  width="32" height="39" viewBox="0 0 32 39">

    <g fill="none" fill-rule="evenodd">
        <path fill="#CCC" d="M17.888 37.062c8.847-7.351 13.27-14.193 13.27-20.524C31.158 6.387 24.37.842 16 .842 7.629.842.842 5.99.842 16.538c0 6.573 4.415 13.424 13.244 20.551a3 3 0 0 0 3.802-.027z"/>
        <path fill="#FFF" fill-rule="nonzero" d="M18.115 37.967a3.368 3.368 0 0 1-4.242.031C4.655 30.637 0 23.493 0 16.538 0 6.163 6.489 0 16 0c9.36 0 16 6.427 16 16.538 0 6.709-4.658 13.837-13.885 21.43zm-1.07-1.3c8.877-7.304 13.27-14.029 13.27-20.13C30.316 7.37 24.442 1.685 16 1.685c-8.6 0-14.316 5.43-14.316 14.854 0 6.345 4.383 13.07 13.24 20.144.622.497 1.506.49 2.121-.015z"/>
    <circle cx="16" cy="16" r="10" stroke="black" stroke-width="0" fill="#fff" />
    <defs>
        <path id="a" d="M0 6.67h17.907V0H0z"/>
    </defs>
    <g transform="translate(5 5)" fill="none" fill-rule="evenodd">
        
        <g transform="translate(2 8)">
            <path fill="#05548F" d="M5.196 5.63c.823 0 1.41-.575 1.41-1.369V2.423h-.742v1.812c0 .45-.238.71-.668.71-.428 0-.66-.26-.66-.71V2.423h-.742v1.838c0 .794.58 1.37 1.402 1.37M7.87 3.843c0-.558.29-.839.72-.839.428 0 .624.245.624.694V5.57h.742V3.673c0-.794-.519-1.344-1.339-1.344-.273 0-.579.118-.748.306v-.211h-.742V5.57h.742V3.843z"/>
            <path fill="#50A120" d="M16.234 2.995a.964.964 0 1 1-.963.963c0-.531.432-.963.963-.963m0 2.635c.922 0 1.673-.75 1.673-1.672 0-.923-.75-1.673-1.673-1.673-.922 0-1.672.75-1.672 1.673 0 .922.75 1.672 1.672 1.672"/>
            <mask id="b" fill="#fff">
                <use xlink:href="#a"/>
            </mask>
            <path fill="#50A120" d="M13.354 6.67h4.553v-.478h-4.553z" mask="url(#b)"/>
            <path fill="#05548F" d="M1.7 5.672c.87 0 1.627-.701 1.68-1.688.004-.092.008-.16.008-.237H1.716v.584h.885a.915.915 0 0 1-.886.612.986.986 0 1 1 .851-1.484l.629-.37A1.715 1.715 0 0 0 0 3.956c0 .947.752 1.715 1.7 1.715" mask="url(#b)"/>
            <path fill="#50A120" d="M14.105 2.732c0-1.246-.76-2.309-1.857-2.732-1.037.513-1.758 1.515-1.758 2.592 0 .764.283 1.431.758 1.952l.277-.245a2.323 2.323 0 0 1-.527-1.475c0-.889.519-1.654 1.25-2.048a2.206 2.206 0 0 1 1.15 1.956c0 .684-.309 1.295-.794 1.703V2.428h-.722v4.005H.025v.237h12.579V5.287a2.926 2.926 0 0 0 1.501-2.556" mask="url(#b)"/>
        </g>
    </g>

        
    </g>
</svg>
