<svg xmlns="http://www.w3.org/2000/svg" xmlns:xlink="http://www.w3.org/1999/xlink"  width="32" height="39" viewBox="0 0 32 39">

    <g fill="none" fill-rule="evenodd">
        <path fill="#FDB00D" d="M17.888 37.062c8.847-7.351 13.27-14.193 13.27-20.524C31.158 6.387 24.37.842 16 .842 7.629.842.842 5.99.842 16.538c0 6.573 4.415 13.424 13.244 20.551a3 3 0 0 0 3.802-.027z"/>
        <path fill="#FFF" fill-rule="nonzero" d="M18.115 37.967a3.368 3.368 0 0 1-4.242.031C4.655 30.637 0 23.493 0 16.538 0 6.163 6.489 0 16 0c9.36 0 16 6.427 16 16.538 0 6.709-4.658 13.837-13.885 21.43zm-1.07-1.3c8.877-7.304 13.27-14.029 13.27-20.13C30.316 7.37 24.442 1.685 16 1.685c-8.6 0-14.316 5.43-14.316 14.854 0 6.345 4.383 13.07 13.24 20.144.622.497 1.506.49 2.121-.015z"/>
    <circle cx="16" cy="16" r="10" stroke="black" stroke-width="0" fill="#fff" />
    <defs>
        <path id="a" d="M0 .015h19.987v9.956H0z"/>
        <linearGradient id="c" x1="50%" x2="50%" y1="0%" y2="100%">
            <stop offset="0%" stop-color="#C30D23"/>
            <stop offset="100%" stop-color="#9C1210"/>
        </linearGradient>
        <linearGradient id="d" x1="50%" x2="50%" y1="0%" y2="100%">
            <stop offset="0%" stop-color="#C30D23"/>
            <stop offset="100%" stop-color="#9C1211"/>
        </linearGradient>
        <linearGradient id="e" x1="50%" x2="50%" y1="1.499%" y2="100%">
            <stop offset="0%" stop-color="#C30D23"/>
            <stop offset="100%" stop-color="#9C1210"/>
        </linearGradient>
    </defs>
    <g transform="translate(5 5)" fill="none" fill-rule="evenodd">
        
        <g transform="translate(1 6)">
            <mask id="b" fill="#fff">
                <use xlink:href="#a"/>
            </mask>
            <path fill="#780A10" d="M18.816 4.994c0 2.398-3.957 4.35-8.822 4.35-4.865 0-8.823-1.952-8.823-4.35 0-2.4 3.958-4.352 8.823-4.352s8.822 1.952 8.822 4.352m-1.765-3.527C15.165.53 12.66.015 9.994.015c-2.666 0-5.172.516-7.058 1.452C1.043 2.407 0 3.659 0 4.994 0 6.328 1.043 7.58 2.936 8.52c1.886.937 4.392 1.451 7.058 1.451 2.665 0 5.171-.514 7.057-1.451 1.894-.94 2.936-2.192 2.936-3.526 0-1.335-1.042-2.588-2.936-3.527" mask="url(#b)"/>
        </g>
        <path fill="#C20D22" d="M10.962 15.37c-4.894 0-8.86-1.957-8.86-4.37 0-2.413 3.966-4.37 8.86-4.37 4.895 0 8.862 1.957 8.862 4.37 0 2.413-3.967 4.37-8.862 4.37m0-9.296C5.46 6.074 1 8.279 1 11c0 2.72 4.46 4.926 9.962 4.926 5.503 0 9.964-2.205 9.964-4.926 0-2.72-4.46-4.926-9.964-4.926"/>
        <path fill="#A42E29" d="M20.473 9.406c.537 1.193-.435 2.082-.679 2.28-.621 2.1-4.306 3.713-8.782 3.713v.523c5.51 0 9.977-2.213 9.977-4.943 0-.55-.181-1.08-.516-1.573M1.55 9.408c-.337.494-.514 1.02-.514 1.571 0 2.73 4.466 4.943 9.976 4.943V15.4c-4.416 0-8.179-1.614-8.802-3.713-.245-.198-1.2-1.085-.66-2.278"/>
        <path fill="#4C0805" fill-opacity=".3" d="M20.473 9.406c.537 1.193-.435 2.082-.679 2.28-.621 2.1-4.306 3.713-8.782 3.713v.523c5.51 0 9.977-2.213 9.977-4.943 0-.55-.181-1.08-.516-1.573M1.55 9.408c-.337.494-.514 1.02-.514 1.571 0 2.73 4.466 4.943 9.976 4.943V15.4c-4.416 0-8.179-1.614-8.802-3.713-.245-.198-1.2-1.085-.66-2.278"/>
        <path fill="#7F0F10" d="M11 15.37c-4.885 0-8.845-1.956-8.845-4.37 0-2.413 3.96-4.37 8.845-4.37 4.886 0 8.846 1.957 8.846 4.37 0 2.414-3.96 4.37-8.846 4.37m0-8.782c-4.907 0-8.885 1.975-8.885 4.413 0 2.437 3.978 4.41 8.885 4.41 4.908 0 8.885-1.973 8.885-4.41 0-2.438-3.977-4.413-8.885-4.413"/>
        <path fill="#C23334" d="M11 15.37c-4.885 0-8.845-1.956-8.845-4.37 0-2.413 3.96-4.37 8.845-4.37 4.886 0 8.846 1.957 8.846 4.37 0 2.414-3.96 4.37-8.846 4.37m0-8.782c-4.907 0-8.885 1.975-8.885 4.413 0 2.437 3.978 4.41 8.885 4.41 4.908 0 8.885-1.973 8.885-4.41 0-2.438-3.977-4.413-8.885-4.413"/>
        <path fill="#EAAA9D" d="M11 6.565c-4.919 0-8.909 1.973-8.909 4.4 0 2.424 3.99 4.397 8.91 4.397 4.918 0 8.907-1.973 8.907-4.397 0-2.427-3.99-4.4-8.908-4.4m0 8.847c-2.393 0-4.643-.46-6.336-1.298-1.699-.84-2.623-1.96-2.623-3.15 0-1.192.924-2.311 2.623-3.15 1.693-.837 3.943-1.3 6.336-1.3 2.394 0 4.644.463 6.337 1.3 1.699.839 2.622 1.958 2.622 3.15 0 1.19-.923 2.31-2.622 3.15-1.693.838-3.943 1.298-6.337 1.298"/>
        <path fill="#D0D2D3" d="M10.012 8.434c-.007 0-.008.005-.008.019v.253c0 .013 0 .02.008.02h.163c.061 0 .108.047.108.106v4.561a.1.1 0 0 0 .103.1h1.212a.1.1 0 0 0 .102-.1v-4.86a.1.1 0 0 0-.102-.1h-1.586zm1.586 5.066h-1.212a.108.108 0 0 1-.11-.107v-4.56a.1.1 0 0 0-.101-.1h-.163c-.016 0-.016-.017-.016-.027v-.253c0-.012 0-.027.016-.027h1.586c.06 0 .108.049.108.107v4.86a.107.107 0 0 1-.108.107z"/>
        <path fill="#D0D2D3" d="M10.278 8.83a.104.104 0 0 0-.105-.104h-.165c-.012 0-.012-.011-.012-.023V8.45c0-.012 0-.024.012-.024h1.593c.06 0 .105.047.105.104v4.866a.104.104 0 0 1-.105.104h-1.218a.104.104 0 0 1-.105-.104V8.83z"/>
        <path fill="#D0D2D3" d="M10.395 13.426a.05.05 0 0 1-.05-.05V8.847a.155.155 0 0 0-.156-.155h-.118V8.5h1.51a.05.05 0 0 1 .051.05v4.826a.05.05 0 0 1-.05.05h-1.187z"/>
        <path fill="#780C11" d="M11.6 8.426h-1.593c-.01 0-.01.012-.01.023v.254c0 .011 0 .023.01.023h.165c.06 0 .105.045.105.103v4.568c0 .058.047.103.107.103H11.6c.06 0 .105-.045.105-.103V8.53a.104.104 0 0 0-.105-.104"/>
        <path fill="url(#c)" d="M.324 4.926a.05.05 0 0 1-.05-.05V.347A.155.155 0 0 0 .118.192H0V0h1.51a.05.05 0 0 1 .051.05v4.826a.05.05 0 0 1-.05.05H.324z" transform="translate(10.07 8.5)"/>
        <path fill="#E8A696" d="M11.58 8.519h-1.498v.19h.02v-.153h1.46c.027 0 .048.022.048.05V13.42a.049.049 0 0 0 .02-.04V8.57a.05.05 0 0 0-.05-.05"/>
        <path fill="#E8A696" d="M10.545 8.901c0-.033-.073-.064-.202-.09.05.017.074.035.074.054v4.517c0 .017.049.03.128.04V8.9z"/>
        <path fill="#D0D2D3" d="M15.083 10.196c.043 0 .056.048.057.049l1.021 3.147c.022.056.081.1.135.1h1.184c.04 0 .062-.018.073-.035a.1.1 0 0 0 .016-.087L15.922 8.5c-.024-.059-.086-.066-.136-.066h-1.89c-.01 0-.02.009-.02.019v.253c0 .01.01.02.02.02h.138c.064 0 .107.038.107.094a.168.168 0 0 1-.011.059l-1.521 4.491a.101.101 0 0 0 .017.087.087.087 0 0 0 .073.036h1.183c.056 0 .114-.045.136-.102l1.01-3.146c0-.001.013-.05.055-.05M17.48 13.5h-1.184c-.058 0-.118-.044-.142-.106l-1.021-3.148s-.013-.044-.049-.044c-.038 0-.048.043-.049.044l-1.01 3.148c-.024.06-.085.106-.143.106H12.7a.1.1 0 0 1-.078-.038.104.104 0 0 1-.018-.093l1.52-4.491a.188.188 0 0 0 .011-.058c0-.053-.04-.087-.1-.087h-.139c-.014 0-.027-.014-.027-.027v-.253c0-.013.013-.027.027-.027h1.89c.053 0 .118.009.143.072l1.648 4.87a.116.116 0 0 1-.017.095.093.093 0 0 1-.079.037"/>
        <path fill="#D0D2D3" d="M15.926 8.495c-.023-.057-.08-.069-.14-.069h-1.893c-.012 0-.023.012-.023.024v.253c0 .012.011.023.023.023h.14c.058 0 .103.034.103.09a.17.17 0 0 1-.012.06l-1.521 4.497c-.018.058.022.127.092.127h1.186c.058 0 .116-.046.139-.104l1.011-3.152s.013-.046.052-.046h.001c.04 0 .053.046.053.046l1.022 3.152c.023.058.08.104.14.104h1.185c.083 0 .106-.083.092-.127l-1.65-4.878z"/>
        <path fill="#D0D2D3" d="M16.288 13.426c-.035 0-.073-.03-.088-.07l-1.014-3.121c-.008-.03-.039-.084-.102-.084-.065 0-.095.054-.103.085l-1.004 3.124c-.013.035-.053.066-.086.066h-1.176a.041.041 0 0 1-.032-.016.049.049 0 0 1-.009-.041l1.51-4.46a.229.229 0 0 0 .014-.075c0-.082-.066-.142-.157-.142h-.108V8.5h1.847c.065 0 .082.017.09.035l1.634 4.836a.05.05 0 0 1-.009.04.037.037 0 0 1-.032.015h-1.175z"/>
        <path fill="#780C11" d="M17.576 13.373l-1.65-4.877c-.023-.058-.08-.07-.14-.07h-1.893c-.012 0-.023.012-.023.024v.253c0 .012.011.023.023.023h.14c.057 0 .104.034.104.09a.17.17 0 0 1-.012.06l-1.523 4.497c-.016.058.024.127.094.127h1.185c.058 0 .116-.046.14-.104l1.01-3.152s.012-.046.053-.046c.04 0 .052.046.052.046l1.023 3.152c.022.058.08.104.14.104h1.185c.082 0 .106-.083.092-.127"/>
        <g>
            <path fill="url(#d)" d="M3.615 4.926c-.034 0-.073-.03-.088-.07L2.513 1.735c-.008-.03-.039-.084-.102-.084-.065 0-.095.054-.103.085L1.304 4.86c-.012.035-.052.066-.086.066H.042A.041.041 0 0 1 .01 4.91a.049.049 0 0 1-.008-.041L1.51.409a.229.229 0 0 0 .014-.075c0-.082-.066-.142-.157-.142H1.26V0h1.847c.065 0 .082.017.09.035L4.83 4.871a.05.05 0 0 1-.009.04.037.037 0 0 1-.031.015H3.615z" transform="translate(12.673 8.5)"/>
            <path fill="#E8A696" d="M15.81 8.574c.029 0 .048.003.06.011l-.003-.014c-.007-.027-.024-.052-.089-.052H13.94v.278h.033v-.223h1.839zM12.719 13.448l1.502-4.48a.265.265 0 0 0 .014-.076.136.136 0 0 0-.052-.109.14.14 0 0 1 .02.072.226.226 0 0 1-.014.075l-1.503 4.48c-.003.015 0 .03.008.043a.033.033 0 0 0 .024.014.028.028 0 0 1 0-.02M15.22 10.299a.13.13 0 0 0-.043-.064.138.138 0 0 1 .01.026l1.01 3.137a.12.12 0 0 0 .037.052.1.1 0 0 1-.006-.015L15.219 10.3z"/>
        </g>
        <path fill="#E7A392" d="M6.213 11.403c.043 0 .064.03.08.051l.004.007 1.371 1.92c.043.063.12.113.18.113h1.383c.03 0 .063-.023.079-.053.016-.033.013-.069-.012-.103l-1.75-2.47c-.017-.024-.024-.035-.024-.06a.15.15 0 0 1 .021-.066l.002-.004 1.463-2.16a.096.096 0 0 0 0-.096.09.09 0 0 0-.078-.047H7.62c-.06 0-.138.048-.183.112l-1.14 1.609c-.042.062-.084.059-.084.059-.036 0-.06-.025-.06-.061v-1.62a.1.1 0 0 0-.1-.1H4.522a.02.02 0 0 0-.02.02v.253c0 .01.01.019.02.019h.161c.06 0 .109.048.109.107v4.56c0 .056.042.1.099.1h1.164a.1.1 0 0 0 .1-.1v-1.918c0-.046.021-.072.06-.072M9.23 13.5H7.849c-.062 0-.142-.05-.186-.116l-1.371-1.92-.005-.006c-.015-.022-.034-.048-.074-.048-.034 0-.053.023-.053.065v1.918a.107.107 0 0 1-.106.107H4.89a.105.105 0 0 1-.107-.107v-4.56a.1.1 0 0 0-.1-.1H4.52a.028.028 0 0 1-.027-.026v-.253c0-.015.013-.028.027-.028h1.533c.059 0 .106.05.106.107v1.62c0 .034.022.055.053.055h.001c.007 0 .042-.003.078-.056l1.14-1.609c.044-.067.125-.117.188-.117h1.312c.034 0 .065.02.084.053a.1.1 0 0 1 0 .102l-1.462 2.161-.002.002a.157.157 0 0 0-.021.064c0 .023.005.031.023.056l1.75 2.47c.026.036.03.076.012.11-.017.032-.053.056-.085.056"/>
        <path fill="#780A10" d="M6.293 10.153l1.142-1.611c.048-.07.128-.116.186-.116h1.314c.073 0 .12.088.08.15L7.552 10.74c-.012.024-.023.045-.023.069 0 .024.006.036.023.058l1.753 2.473a.098.098 0 0 1-.07.161H7.85c-.056 0-.137-.045-.184-.114l-1.373-1.923c-.015-.022-.034-.056-.08-.056-.034 0-.057.023-.057.069v1.92a.103.103 0 0 1-.104.104H4.887a.102.102 0 0 1-.103-.103V8.83a.103.103 0 0 0-.105-.104h-.162c-.01 0-.023-.01-.023-.023V8.45c0-.012.012-.024.023-.024h1.535c.058 0 .104.047.104.104v1.623c0 .034.023.057.056.057 0 0 .041.003.081-.057"/>
        <path fill="url(#e)" d="M6.894 7.426c-.037 0-.102-.035-.14-.091L5.365 5.422c-.018-.026-.051-.072-.12-.072-.056 0-.112.037-.112.121v1.905a.05.05 0 0 1-.05.05H3.91a.05.05 0 0 1-.05-.05V2.847a.156.156 0 0 0-.158-.155h-.133V2.5h1.514a.05.05 0 0 1 .051.05V4.16c0 .063.046.11.111.11.018 0 .075-.007.127-.081L6.52 2.592c.039-.058.104-.092.142-.092h1.322a.04.04 0 0 1 .035.023c.007.011.011.03.002.045L6.547 4.713l-.002.004c-.013.028-.03.057-.03.092 0 .023.01.057.04.096L8.313 7.35c.015.02.018.037.01.052-.009.016-.026.025-.035.025H6.894z" transform="translate(1 6)"/>
        <g fill="#E8A696">
            <path d="M6.11 8.607v1.616c0 .063.046.11.11.11.016 0 .066-.005.114-.066a.134.134 0 0 1-.076.03.106.106 0 0 1-.11-.111V8.569a.05.05 0 0 0-.05-.05h-1.5v.038h1.461a.05.05 0 0 1 .051.05M6.115 11.542v1.914c0 .004 0 .008-.006.011.146-.004.262-.024.262-.048v-1.914c0-.03.042-.053.115-.07-.213.016-.37.052-.37.107M7.555 10.936a.17.17 0 0 1-.039-.097c0-.035.016-.065.03-.092l.001-.004 1.461-2.156c.01-.015.005-.034 0-.045-.003-.006-.015-.023-.035-.023h-1.31c-.035 0-.091.03-.13.077a.163.163 0 0 1 .091-.039h1.31c.02 0 .033.017.036.022.007.012.01.03 0 .045l-1.46 2.157-.003.004a.2.2 0 0 0-.028.092c0 .023.007.057.04.096.112.16 1.736 2.45 1.74 2.456.012.014.016.028.014.04a.05.05 0 0 0 .033-.026c.008-.014.005-.033-.01-.052-.003-.006-1.628-2.296-1.74-2.455M6.383 10.215l1.138-1.604a.174.174 0 0 0 .011-.015.34.34 0 0 0-.049.053l-1.138 1.603-.011.016a.234.234 0 0 0 .05-.053"/>
        </g>
    </g>

        
    </g>
</svg>
