<svg xmlns="http://www.w3.org/2000/svg" xmlns:xlink="http://www.w3.org/1999/xlink"  width="32" height="39" viewBox="0 0 32 39">
    <g fill="none" fill-rule="evenodd">
        <path fill="#F50403" d="M17.888 37.062c8.847-7.351 13.27-14.193 13.27-20.524C31.158 6.387 24.37.842 16 .842 7.629.842.842 5.99.842 16.538c0 6.573 4.415 13.424 13.244 20.551a3 3 0 0 0 3.802-.027z"/>
        <path fill="#FFF" fill-rule="nonzero" d="M18.115 37.967a3.368 3.368 0 0 1-4.242.031C4.655 30.637 0 23.493 0 16.538 0 6.163 6.489 0 16 0c9.36 0 16 6.427 16 16.538 0 6.709-4.658 13.837-13.885 21.43zm-1.07-1.3c8.877-7.304 13.27-14.029 13.27-20.13C30.316 7.37 24.442 1.685 16 1.685c-8.6 0-14.316 5.43-14.316 14.854 0 6.345 4.383 13.07 13.24 20.144.622.497 1.506.49 2.121-.015z"/>
    <circle cx="16" cy="16" r="10" stroke="black" stroke-width="0" fill="#fff" />
    <defs>
        <path id="a" d="M9.113.02c-.572 0-.917.033-.917.033C4.28.166 2.052 1.788 2.052 1.788.129 3.016.002 4.424 0 4.756v.015c0 .038.002.058.002.058C.058 7.294 3.229 8.5 3.229 8.5c0-.309.885-1.865.885-1.865 1.097-1.356 3.78-1.782 3.78-1.782 1.198-1.86 4.227-2.508 4.227-2.508 2.743-.648 5.27.628 5.27.628-.266-.405-1.078-1.001-1.078-1.001C13.793.263 10.683.02 9.148.019h-.035z"/>
        <linearGradient id="b" x1="0%" y1="50%" y2="50%">
            <stop offset="0%" stop-color="#C6DA2A"/>
            <stop offset="100%" stop-color="#3EC1BF"/>
        </linearGradient>
        <path id="d" d="M.01.006h2.3v2.57H.01z"/>
        <path id="f" d="M0 9.288h19.968V.02H0z"/>
    </defs>
    <g transform="translate(5 5)" fill="none" fill-rule="evenodd">
        
        <g transform="translate(1 6.059)">
            <mask id="c" fill="#fff">
                <use xlink:href="#a"/>
            </mask>
            <path fill="url(#b)" d="M8.196.053C4.28.166 2.052 1.788 2.052 1.788.129 3.016.002 4.424 0 4.756c0 .053.002.073.002.073C.058 7.294 3.229 8.5 3.229 8.5c0-.309.885-1.865.885-1.865 1.097-1.356 3.78-1.782 3.78-1.782 1.198-1.86 4.227-2.508 4.227-2.508 2.743-.648 5.27.628 5.27.628-.266-.405-1.078-1.001-1.078-1.001C13.793.263 10.683.02 9.148.019c-.607 0-.952.034-.952.034z" mask="url(#c)"/>
        </g>
        <g transform="translate(1 6.059)">
            <g transform="translate(8.34 6.713)">
                <mask id="e" fill="#fff">
                    <use xlink:href="#d"/>
                </mask>
                <path fill="#374DA1" d="M.01.006v2.57h.63V1.78l.753.762h.912l-1.25-1.263L2.31.012h-.905l-.74.747V.006z" mask="url(#e)"/>
            </g>
            <mask id="g" fill="#fff">
                <use xlink:href="#f"/>
            </mask>
            <path fill="#F16721" d="M10.813 7.378h1.868v-.66h-1.868zM10.813 8.333h1.868v-.66h-1.868zM10.813 9.288h1.868v-.66h-1.868z" mask="url(#g)"/>
            <path fill="#374DA1" d="M12.838 6.718h.731l.608 1.615.619-1.615h.765l-1.069 2.57h-.72zM16.202 6.718h1.204v.66H16.36v1.25h1.046v.66h-1.204s-.551-.102-.551-.795V7.378s0-.66.55-.66M19.825 6.718v.56h-1.182s-.228-.045-.228.27c0 0-.008.286.186.286h.852s.515-.062.515.673c0 .737-.346.781-.506.781h-1.629v-.6h1.333s.279.044.279-.234c0 0 .025-.252-.279-.252h-.818s-.515.036-.515-.726c0 0-.006-.758.54-.758h1.452zM2.365 8.075s1.55-4.43 10.527-3.565c0 0-7.728-.102-9.663 3.991 0 0-.471-.19-.864-.426" mask="url(#g)"/>
            <path fill="#374DA1" d="M7.168 4.834s3.966-4.927 10.222-1.86c0 0-5.643-2.406-8.984 1.937L7.168 5" mask="url(#g)"/>
        </g>
    </g>

        
    </g>
</svg>
