<svg xmlns="http://www.w3.org/2000/svg" xmlns:xlink="http://www.w3.org/1999/xlink"  width="32" height="39" viewBox="0 0 32 39">
    <g fill="none" fill-rule="evenodd">
        <path fill="#F50403" d="M17.888 37.062c8.847-7.351 13.27-14.193 13.27-20.524C31.158 6.387 24.37.842 16 .842 7.629.842.842 5.99.842 16.538c0 6.573 4.415 13.424 13.244 20.551a3 3 0 0 0 3.802-.027z"/>
        <path fill="#FFF" fill-rule="nonzero" d="M18.115 37.967a3.368 3.368 0 0 1-4.242.031C4.655 30.637 0 23.493 0 16.538 0 6.163 6.489 0 16 0c9.36 0 16 6.427 16 16.538 0 6.709-4.658 13.837-13.885 21.43zm-1.07-1.3c8.877-7.304 13.27-14.029 13.27-20.13C30.316 7.37 24.442 1.685 16 1.685c-8.6 0-14.316 5.43-14.316 14.854 0 6.345 4.383 13.07 13.24 20.144.622.497 1.506.49 2.121-.015z"/>
    <circle cx="16" cy="16" r="10" stroke="black" stroke-width="0" fill="#fff" />
    <defs>
        <radialGradient id="a" cx="31.001%" cy="29.073%" r="55.655%" fx="31.001%" fy="29.073%" gradientTransform="matrix(.75794 .1428 -.08814 .79766 .1 .015)">
            <stop offset="0%" stop-color="#FFF"/>
            <stop offset="73.368%" stop-color="#C2CAD4"/>
            <stop offset="100%" stop-color="#AFB0B7"/>
        </radialGradient>
        <radialGradient id="b" cx="46.896%" cy="75.072%" r="86.38%" fx="46.896%" fy="75.072%" gradientTransform="matrix(.06737 -.99239 .74442 .16892 -.121 1.09)">
            <stop offset="0%" stop-color="#DDE0E7"/>
            <stop offset="100%" stop-color="#23262F"/>
        </radialGradient>
        <path id="c" d="M.034.003h13.145v10.23H.034z"/>
        <radialGradient id="d" cx="76.8%" cy="14.653%" r="107.755%" fx="76.8%" fy="14.653%" gradientTransform="matrix(-.53257 .7291 -.56734 -.68442 1.26 -.313)">
            <stop offset="0%" stop-color="#FFF"/>
            <stop offset="43.576%" stop-color="#ABADB9"/>
            <stop offset="100%" stop-color="#323235"/>
        </radialGradient>
        <radialGradient id="f" cx="15.371%" cy="80.166%" r="150.395%" fx="15.371%" fy="80.166%" gradientTransform="scale(.61634 1) rotate(-24.078 .202 .577)">
            <stop offset="0%" stop-color="#EEE" stop-opacity="0"/>
            <stop offset="29.71%" stop-color="#848485" stop-opacity="0"/>
            <stop offset="57.309%" stop-color="#444" stop-opacity=".654"/>
            <stop offset="100%" stop-color="#232324"/>
        </radialGradient>
        <linearGradient id="g" x1="3.631%" x2="103.967%" y1="36.257%" y2="65.962%">
            <stop offset="0%"/>
            <stop offset="45.127%" stop-color="#FFF"/>
            <stop offset="100%"/>
        </linearGradient>
        <radialGradient id="h" cx="25.421%" cy="32.815%" r="93.295%" fx="25.421%" fy="32.815%" gradientTransform="scale(.7658 1) rotate(-14.179 .293 .016)">
            <stop offset="0%" stop-color="#FFF" stop-opacity="0"/>
            <stop offset="83.102%" stop-color="#BDBEC4" stop-opacity="0"/>
            <stop offset="100%" stop-color="#AFB0B7"/>
        </radialGradient>
        <linearGradient id="i" x1="49.959%" x2="42.082%" y1="68.726%" y2="54.729%">
            <stop offset="0%" stop-color="#6C6F73"/>
            <stop offset="100%" stop-color="#3B3D3E"/>
        </linearGradient>
    </defs>
    <g transform="translate(5 5)" fill="none" fill-rule="evenodd">
        
        <path fill="url(#a)" d="M7.79 10.123C3.275 9.53 0 7.721 0 5.4 0 2.547 4.95 0 11.068 0c.736 0 1.455.033 2.151.097l-1.303 1.944s-5.03-.52-8.102 1.816c0 0-2.777 2.148-.108 4.264 0 0 1.698 1.232 4.615 1.405l-.531.597z" transform="translate(1 5)"/>
        <path fill="url(#b)" d="M8.14 10.205s5.72.695 8.607-1.99c0 0 1.666-1.712.617-3.153 0 0-1.42-1.93-5.077-2.342 0 0-.502-.055-.602-.055l.231-.624s-1.978-.154-3.32.08c0 0-2.775.228-4.782 1.736 0 0-1.242.98-1.267 2.243 0 0-.182 1.922 3.147 2.947 0 0 1.693.527 2.627.48l-.182.678z" transform="translate(1 5)"/>
        <path fill="#FFF" d="M17.565 11.123c0 1.649-2.915 2.985-6.511 2.985-3.597 0-6.512-1.336-6.512-2.985 0-1.648 2.915-2.984 6.512-2.984 3.596 0 6.511 1.336 6.511 2.984"/>
        <g transform="translate(7.806 6.95)">
            <mask id="e" fill="#fff">
                <use xlink:href="#c"/>
            </mask>
            <path fill="url(#d)" d="M1.253 8.335l-1.22 1.799s4.661.538 8.58-.9c0 0 3.735-1.106 4.507-3.79 0 0 .694-2.416-2.67-3.9 0 0-2.486-1.293-4.93-1.54l-.64.71s4.136.24 5.763 2.524c0 0 1.485 2.118-2.494 4.175 0 0-3.03 1.284-6.815.842l-.081.08z" mask="url(#e)"/>
        </g>
        <path fill="#272932" fill-opacity=".7" d="M12.904 7.03l-.22.69s3.998.34 5.448 2.342c0 0-.486-.068-.567.872 0 0-.24-1.925-3.903-2.546 0 0-4.097-.865-7.375.703 0 0-1.663.73-1.745 2.032 0 0-.129-1.152-.515-1.061 0 0-.28.06-.366.402 0 0 .413-2.033 4.317-3.028 0 0 2.75-.675 4.923-.397"/>
        <path fill="url(#f)" fill-rule="nonzero" d="M12.5 10.115c1.51-.263 2.822-.79 3.936-1.583 1.114-.792 1.567-.305 1.357 1.46-.769.592-1.724 1.046-2.866 1.362-1.141.317-1.95-.096-2.427-1.24z" transform="translate(1 5)"/>
        <path fill="#FFF" d="M12.662 7.716s5.818.474 6.065 3.458c0 0 .124 2.732-4.737 3.822 0 0-2.3.49-4.815.22 0 0 5.694.3 7.978-1.689 0 0 1.744-1.458 1.327-2.858 0 0-.848-2.069-4.529-2.7l-1.289-.253z"/>
        <path fill="#FFF" fill-rule="nonzero" d="M12.825 6.947L14.01 5.27l.038.028-1.2 1.7a10.978 10.978 0 0 0-.07-.01c-1.232-.15-2.552-.072-3.833.148a14.593 14.593 0 0 0-1.073.227 4.2 4.2 0 0 0-.18.053 10.598 10.598 0 0 0-2.055.862c-1.43.793-2.274 1.771-2.24 2.944l.001.04a1.93 1.93 0 0 0 .117.485c.148.389.416.778.834 1.142.57.498 1.378.907 2.456 1.2l-.012.045c-1.085-.293-1.898-.706-2.474-1.209-.424-.369-.696-.765-.847-1.162a1.978 1.978 0 0 1-.107-.387 1.027 1.027 0 0 1-.015-.154c-.034-1.194.821-2.186 2.265-2.986a10.643 10.643 0 0 1 1.553-.696 10.8 10.8 0 0 1 .725-.23 5.653 5.653 0 0 1 .268-.066c.23-.053.491-.106.777-.155 1.285-.22 2.608-.298 3.845-.148l.043.006z"/>
        <path fill="#FFF" fill-opacity=".8" d="M7.61 5.53s2.72-.601 5.842-.459c0 0-3.469.022-5.937.648 0 0-2.253.505-4.522 1.752 0 0 1.331-1.152 4.617-1.942z"/>
        <path fill="#272933" d="M1.355 9.527s-.34 1.068.114 1.503c0 0 .256.222.636-.082 0 0 .956-.781 1.419-.796 0 0-1.033 1.823 1.5 3.166 0 0 1.91 1.13 4.31 1.181l-.477.545s-3.672-.32-6.056-2.128c0 0-1.303-.938-1.516-1.742 0 0-.253-.699.07-1.647"/>
        <path fill="url(#g)" fill-opacity=".2" d="M5.338 9.025s1.25.308 2.801.592c0 0-1.11.652-3.507-.45 0 0-.671-.312-1.516-1.03 0 0-.41-.397-.787-1.113 0 0-.145-.314-.093-.557 0 0 .394 1.978 3.102 2.558z" transform="translate(1 5)"/>
        <path fill="#FFF" fill-opacity=".7" d="M20.771 11.29s.23-.962-1.653-2.32c0 0-1.155-.867-3.84-1.589 0 0-1.905-.404-2.008-.371 0 0 6.42.948 7.501 4.28z"/>
        <path fill="#272932" d="M9.335 14.5l-.545.623-.016.054-.935 1.908 1.3-1.882s4.95.64 8.168-1.622c0 0 1.428-.935 1.39-2.633 0 0-.026-.68-.874-1.45 0 0 1.065.825 1.05 1.552 0 0 1.474.71 1.813 1.279 0 0 .244-.435.01-1.398 0 0-.516-1.54-2.348-2.398 0 0 1.27.444 2.109 1.65 0 0 1.178 1.478.036 3.17 0 0-.81 1.328-2.199 1.993 0 0-.54.172-1.173-.143 0 0-.123-.23-.871-.245 0 0-1.058-.038-2.323.162 0 0-.61.005-1.458.273 0 0-2.466.322-3.33-.19"/>
        <path fill="url(#h)" d="M7.79 10.123C3.275 9.53 0 7.721 0 5.4 0 2.547 4.95 0 11.068 0c.736 0 1.455.033 2.151.097l-1.303 1.944s-5.03-.52-8.102 1.816c0 0-2.777 2.148-.108 4.264 0 0 1.698 1.232 4.615 1.405l-.531.597z" transform="translate(1 5)"/>
        <path fill="url(#i)" d="M13.245.073l-.788 1.894-.788.753.232-.679z" transform="translate(1 5)"/>
    </g>

        
    </g>
</svg>
