<svg xmlns="http://www.w3.org/2000/svg" xmlns:xlink="http://www.w3.org/1999/xlink"  width="32" height="39" viewBox="0 0 32 39">

    <g fill="none" fill-rule="evenodd">
        <path fill="#444" d="M17.888 37.062c8.847-7.351 13.27-14.193 13.27-20.524C31.158 6.387 24.37.842 16 .842 7.629.842.842 5.99.842 16.538c0 6.573 4.415 13.424 13.244 20.551a3 3 0 0 0 3.802-.027z"/>
        <path fill="#FFF" fill-rule="nonzero" d="M18.115 37.967a3.368 3.368 0 0 1-4.242.031C4.655 30.637 0 23.493 0 16.538 0 6.163 6.489 0 16 0c9.36 0 16 6.427 16 16.538 0 6.709-4.658 13.837-13.885 21.43zm-1.07-1.3c8.877-7.304 13.27-14.029 13.27-20.13C30.316 7.37 24.442 1.685 16 1.685c-8.6 0-14.316 5.43-14.316 14.854 0 6.345 4.383 13.07 13.24 20.144.622.497 1.506.49 2.121-.015z"/>
    <circle cx="16" cy="16" r="10" stroke="black" stroke-width="0" fill="#fff" />
    <defs>
        <path id="a" d="M0 .034h17.962v9.874H0z"/>
        <path id="c" d="M0 .034h17.962v9.874H0z"/>
        <linearGradient id="f" x1="50%" x2="50%" y1="0%" y2="100%">
            <stop offset="0%" stop-color="#FFF100"/>
            <stop offset="65.609%" stop-color="#ED1C24"/>
            <stop offset="100%" stop-color="#C4151C"/>
        </linearGradient>
        <path id="e" d="M4.689.006A4.645 4.645 0 0 0 .044 4.651a4.63 4.63 0 0 0 1.28 3.201s.947-.641 2.736-.628c0 0 1.271-.023 2.445.546 0 0 .397.163.909.57l.047.038A4.645 4.645 0 0 0 4.69.006z"/>
    </defs>
    <g transform="translate(5 5)" fill="none" fill-rule="evenodd">
        
        <g transform="translate(2 10.535)">
            <mask id="b" fill="#fff">
                <use xlink:href="#a"/>
            </mask>
            <g mask="url(#b)">
                <g transform="translate(0 .076)">
                    <mask id="d" fill="#fff">
                        <use xlink:href="#c"/>
                    </mask>
                    <path fill="#006BB6" d="M16.243 8.262s-.193.58-.385 1.082l.021.036.03-.014s.168-.229.213-.356c0 0 .127-.217.175-.287l-.02-.068s.057-.058.123-.071c0 0 .155-.288.177-.387 0 0 .014-.065.049-.097 0 0 .056-.007.027.094l-.023.121s.035.03.038.118c0 0-.001.028-.026.053 0 0-.036.04-.015.093 0 0-.015.035-.024.075 0 0 .044.02.025.052 0 0-.007.048-.03.081 0 0-.043.047-.023.139 0 0-.007.065-.048.12l-.031.179s.14-.2.216-.4c0 0 .062-.123.128-.343 0 0 .048-.052-.038.392 0 0-.03.163-.099.393 0 0-.01.022.012.016 0 0 0 .016.032-.042 0 0 .18-.313.24-.579 0 0 .016-.057.021.011 0 0-.022.11-.024.15 0 0 .033.006.007.075 0 0 .017.026-.01.044 0 0-.014.004-.019.078 0 0-.027.212-.075.344 0 0-.008.146-.18.475 0 0-.014.038.005.053 0 0 .042-.003.09-.089 0 0 .32-.528.489-1.165 0 0 .012.02.01.074 0 0-.047.117-.04.158 0 0-.015.111 0 .17l-.04.01s-.087.238-.142.418c0 0 .013.04.096-.125 0 0-.01.192-.162.524 0 0-.013.07.027.028 0 0 .35-.526.495-.949 0 0-.042-.027-.035-.075 0 0 0-.07.093-.062 0 0 .024-.038.052-.135 0 0-.076-.072-.038-.147 0 0 .01-.076.113-.083l.084-.3c.248-.932.13-1.798.13-1.798-.234-1.923-1.997-2.361-1.997-2.361-.506-2.782-3.347-2.653-3.347-2.653C11.198-.041 9.028.035 9.028.035c-2.23.042-4.324 1.738-4.324 1.738C1.064 4.7 0 8.922 0 8.922l2.249-.005c.26-1.17 1.179-2.732 1.179-2.732 1.611-3.015 3.754-4.25 3.754-4.25 2.01-1.252 3.594-.312 3.594-.312-2.39.573-4.53 2.837-4.53 2.837-1.835 1.832-2.942 4.462-2.942 4.462h2.214c1.15-2.49 2.483-3.815 2.483-3.815 1.844-1.993 3.552-2.416 3.552-2.416.304.752.193 1.714.193 1.714-3.013 1.222-5.341 4.517-5.341 4.517h2.323c.825-1.204 2.63-2.571 2.63-2.571a15.496 15.496 0 0 1-1.066 2.57h1.702c.823-1.767 1.089-3.41 1.089-3.41.703-.342 1.258-.31 1.258-.31-.26 1.504-1.21 3.714-1.21 3.714h1.67c.779-1.956 1.042-3.47 1.042-3.47s.58.197.652.994c0 0 .128.433-.252 1.823" mask="url(#d)"/>
                </g>
                <path fill="#FEFEFE" d="M12.932 2.497s1.223.207 1.456 1.367c0 0-.567.02-1.243.147 0 0-.013-1.043-.213-1.514"/>
            </g>
        </g>
        <g transform="translate(7.12 3.049)">
            <mask id="g" fill="#fff">
                <use xlink:href="#e"/>
            </mask>
            <use fill="url(#f)" xlink:href="#e"/>
            <path d="M4.689.006A4.645 4.645 0 0 0 .044 4.651a4.63 4.63 0 0 0 1.28 3.201s.947-.641 2.736-.628c0 0 1.271-.023 2.445.546 0 0 .397.163.909.57l.047.038A4.645 4.645 0 0 0 4.69.006z" mask="url(#g)"/>
        </g>
    </g>

        
    </g>
</svg>
