<svg xmlns="http://www.w3.org/2000/svg" xmlns:xlink="http://www.w3.org/1999/xlink"  width="32" height="39" viewBox="0 0 32 39">

    <g fill="none" fill-rule="evenodd">
        <path fill="#444" d="M17.888 37.062c8.847-7.351 13.27-14.193 13.27-20.524C31.158 6.387 24.37.842 16 .842 7.629.842.842 5.99.842 16.538c0 6.573 4.415 13.424 13.244 20.551a3 3 0 0 0 3.802-.027z"/>
        <path fill="#FFF" fill-rule="nonzero" d="M18.115 37.967a3.368 3.368 0 0 1-4.242.031C4.655 30.637 0 23.493 0 16.538 0 6.163 6.489 0 16 0c9.36 0 16 6.427 16 16.538 0 6.709-4.658 13.837-13.885 21.43zm-1.07-1.3c8.877-7.304 13.27-14.029 13.27-20.13C30.316 7.37 24.442 1.685 16 1.685c-8.6 0-14.316 5.43-14.316 14.854 0 6.345 4.383 13.07 13.24 20.144.622.497 1.506.49 2.121-.015z"/>
    <circle cx="16" cy="16" r="10" stroke="black" stroke-width="0" fill="#fff" />
    <defs>
        <path id="a" d="M0 .125h17.965v10.844H0z"/>
    </defs>
    <g transform="translate(5 5)" fill="none" fill-rule="evenodd">
        <path fill="#652C8C" d="M15.503 8.07a.746.746 0 0 0-.753.738v1.704c0 .704-.464 1.228-1.08 1.228-.617 0-1.081-.524-1.081-1.228V8.808a.727.727 0 0 0-.733-.737.746.746 0 0 0-.752.737v1.736c0 1.512 1.103 2.62 2.566 2.62.709 0 1.364-.274 1.845-.77.477-.492.74-1.16.74-1.882V8.808a.746.746 0 0 0-.752-.737"/>
        <g transform="translate(2 5.023)">
            <mask id="b" fill="#fff">
                <use xlink:href="#a"/>
            </mask>
            <path fill="#AACE36" d="M17.372 10.803a.603.603 0 0 1-.19-.03l-2.03-.504c-.827.46-1.762.7-2.72.7h-6.9C2.483 10.97 0 8.537 0 5.547 0 2.557 2.482.125 5.533.125h2.382c.328 0 .593.26.593.58 0 .322-.265.582-.593.582H5.533c-2.397 0-4.347 1.911-4.347 4.26 0 2.35 1.95 4.26 4.347 4.26h6.899c.83 0 1.636-.23 2.332-.664a.603.603 0 0 1 .508-.06l1.329.384-.562-1.137a.57.57 0 0 1 .062-.497 4.186 4.186 0 0 0 .678-2.286c0-2.349-1.95-4.26-4.347-4.26h-2.383a.587.587 0 0 1-.592-.581c0-.32.265-.581.592-.581h2.383c3.05 0 5.533 2.432 5.533 5.422 0 .94-.247 1.856-.715 2.667l.684 1.823c.072.21.016.44-.143.596a.6.6 0 0 1-.42.17" mask="url(#b)"/>
        </g>
        <path fill="#652C8C" d="M9.59 11.187a.755.755 0 0 0-.532.216 1.205 1.205 0 0 1-.849.344c-.32 0-.622-.122-.848-.344a1.184 1.184 0 0 1-.37-.832c0-.298.134-.6.37-.832.227-.222.528-.344.848-.344.32 0 .622.122.849.344.142.14.33.216.532.216.201 0 .39-.076.532-.216a.728.728 0 0 0 0-1.043c-.51-.5-1.19-.776-1.913-.776-.722 0-1.401.275-1.912.776a2.618 2.618 0 0 0 0 3.75c.51.5 1.19.775 1.912.775.724 0 1.403-.275 1.913-.775a.729.729 0 0 0 0-1.043.757.757 0 0 0-.532-.216"/>
    </g>

        
    </g>
</svg>
