<svg xmlns="http://www.w3.org/2000/svg" xmlns:xlink="http://www.w3.org/1999/xlink"  width="32" height="39" viewBox="0 0 32 39">

    <g fill="none" fill-rule="evenodd">
        <path fill="#444" d="M17.888 37.062c8.847-7.351 13.27-14.193 13.27-20.524C31.158 6.387 24.37.842 16 .842 7.629.842.842 5.99.842 16.538c0 6.573 4.415 13.424 13.244 20.551a3 3 0 0 0 3.802-.027z"/>
        <path fill="#FFF" fill-rule="nonzero" d="M18.115 37.967a3.368 3.368 0 0 1-4.242.031C4.655 30.637 0 23.493 0 16.538 0 6.163 6.489 0 16 0c9.36 0 16 6.427 16 16.538 0 6.709-4.658 13.837-13.885 21.43zm-1.07-1.3c8.877-7.304 13.27-14.029 13.27-20.13C30.316 7.37 24.442 1.685 16 1.685c-8.6 0-14.316 5.43-14.316 14.854 0 6.345 4.383 13.07 13.24 20.144.622.497 1.506.49 2.121-.015z"/>
    <circle cx="16" cy="16" r="10" stroke="black" stroke-width="0" fill="#fff" />
    <defs>
        <path id="a" d="M.051.008h11.787v9.68H.05z"/>
        <path id="c" d="M0 .048h15.437v13.307H0z"/>
    </defs>
    <g transform="translate(5 5)" fill="none" fill-rule="evenodd">
        
        <g transform="translate(7.089 9.264)">
            <mask id="b" fill="#fff">
                <use xlink:href="#a"/>
            </mask>
            <path fill="#EE4123" d="M4.08 2.236c3.712-.724 5.788 1.34 6.869 3.165a7.91 7.91 0 0 0 .737-5.187C3.46-1.202.864 5.032.051 8.716a7.95 7.95 0 0 0 3.823.973c2.21 0 4.209-.897 5.651-2.344-1.621-5.003-5.444-5.11-5.444-5.11" mask="url(#b)"/>
        </g>
        <g transform="translate(3 3.041)">
            <mask id="d" fill="#fff">
                <use xlink:href="#c"/>
            </mask>
            <path fill="#EE4123" d="M13.12 1.936c-1.433 2.486-3.441 3.65-3.441 3.65 1.117-1.342 1.671-3.241 1.943-4.653a7.952 7.952 0 0 0-3.66-.886A7.964 7.964 0 0 0 1.27 3.68c1.154.98 3.759 2.607 7.997 2.18 0 0-4.549.795-8.876-.339A7.884 7.884 0 0 0 0 7.98c0 2.075.8 3.962 2.108 5.376 2.3-7.655 11.276-8.114 13.33-8.118a7.951 7.951 0 0 0-2.318-3.3" mask="url(#d)"/>
        </g>
        <path fill="#FEFEFE" d="M12.04 7.14c0-.726-.597-1.314-1.332-1.314-.736 0-1.332.588-1.332 1.313s.596 1.313 1.332 1.313c.735 0 1.332-.588 1.332-1.313"/>
    </g>

        
    </g>
</svg>
