<svg xmlns="http://www.w3.org/2000/svg" xmlns:xlink="http://www.w3.org/1999/xlink"  width="32" height="39" viewBox="0 0 32 39">

    <g fill="none" fill-rule="evenodd">
        <path fill="#CCC" d="M17.888 37.062c8.847-7.351 13.27-14.193 13.27-20.524C31.158 6.387 24.37.842 16 .842 7.629.842.842 5.99.842 16.538c0 6.573 4.415 13.424 13.244 20.551a3 3 0 0 0 3.802-.027z"/>
        <path fill="#FFF" fill-rule="nonzero" d="M18.115 37.967a3.368 3.368 0 0 1-4.242.031C4.655 30.637 0 23.493 0 16.538 0 6.163 6.489 0 16 0c9.36 0 16 6.427 16 16.538 0 6.709-4.658 13.837-13.885 21.43zm-1.07-1.3c8.877-7.304 13.27-14.029 13.27-20.13C30.316 7.37 24.442 1.685 16 1.685c-8.6 0-14.316 5.43-14.316 14.854 0 6.345 4.383 13.07 13.24 20.144.622.497 1.506.49 2.121-.015z"/>
    <circle cx="16" cy="16" r="10" stroke="black" stroke-width="0" fill="#fff" />
    <defs>
        <path id="a" d="M6.133.02C2.746.02 0 2.73 0 6.073c0 3.342 2.746 6.052 6.133 6.052a6.23 6.23 0 0 0 1.249-.126 3.946 3.946 0 0 1 1.025-3.453c-.601.539-1.399.866-2.274.866-1.87 0-3.385-1.495-3.385-3.34 0-1.844 1.516-3.34 3.385-3.34 1.87 0 3.384 1.496 3.384 3.34 0 .875-.34 1.671-.898 2.266a4.055 4.055 0 0 1 2.738-1.055c.263 0 .521.026.77.073a6.02 6.02 0 0 0 .139-1.283C12.266 2.73 9.52.02 6.133.02z"/>
        <linearGradient id="b" x1="21.998%" x2="78.373%" y1="15.244%" y2="77.632%">
            <stop offset="0%" stop-color="#FE6D01"/>
            <stop offset="100%" stop-color="#EE0E06"/>
        </linearGradient>
        <path id="d" d="M3.223 2.95c.223-.176.503-.28.81-.28.715 0 1.294.57 1.294 1.276 0 .706-.58 1.278-1.294 1.278a1.287 1.287 0 0 1-1.295-1.278c0-.305.109-.585.29-.805A6.143 6.143 0 0 1 .06 4.673c.346 1.856 1.994 3.264 3.975 3.264 2.234 0 4.043-1.787 4.043-3.99C8.08 2.002 6.671.384 4.807.03a6.027 6.027 0 0 1-1.584 2.92"/>
        <linearGradient id="e" x1="37.953%" x2="85.495%" y1="38.235%" y2="84.501%">
            <stop offset="0%" stop-color="#019EC6"/>
            <stop offset="100%" stop-color="#0C459C"/>
        </linearGradient>
        <path id="g" d="M1.401 1.113a3.381 3.381 0 0 1-.212.21A3.946 3.946 0 0 0 .096 4.047c0 .249.024.49.068.727a6.143 6.143 0 0 0 2.967-1.532c.058-.07.124-.135.196-.19A6.027 6.027 0 0 0 4.91.131a4.124 4.124 0 0 0-.77-.073c-1.057 0-2.019.4-2.739 1.054"/>
        <linearGradient id="h" x1="25.539%" x2="64.354%" y1="26.41%" y2="63.936%">
            <stop offset="0%" stop-color="#90C016"/>
            <stop offset="100%" stop-color="#0D691D"/>
        </linearGradient>
    </defs>
    <g transform="translate(5 5)" fill="none" fill-rule="evenodd">
        
        <g transform="translate(3 4.082)">
            <mask id="c" fill="#fff">
                <use xlink:href="#a"/>
            </mask>
            <path fill="url(#b)" d="M6.133.02C2.746.02 0 2.73 0 6.073c0 3.342 2.746 6.052 6.133 6.052a6.23 6.23 0 0 0 1.249-.126 3.946 3.946 0 0 1 1.025-3.453c-.601.539-1.399.866-2.274.866-1.87 0-3.385-1.495-3.385-3.34 0-1.844 1.516-3.34 3.385-3.34 1.87 0 3.384 1.496 3.384 3.34 0 .875-.34 1.671-.898 2.266a4.055 4.055 0 0 1 2.738-1.055c.263 0 .521.026.77.073a6.02 6.02 0 0 0 .139-1.283C12.266 2.73 9.52.02 6.133.02z" mask="url(#c)"/>
        </g>
        <g transform="translate(10.32 11.408)">
            <mask id="f" fill="#fff">
                <use xlink:href="#d"/>
            </mask>
            <path fill="url(#e)" d="M3.223 2.95c.223-.176.503-.28.81-.28.715 0 1.294.57 1.294 1.276 0 .706-.58 1.278-1.294 1.278a1.287 1.287 0 0 1-1.295-1.278c0-.305.109-.585.29-.805A6.143 6.143 0 0 1 .06 4.673c.346 1.856 1.994 3.264 3.975 3.264 2.234 0 4.043-1.787 4.043-3.99C8.08 2.002 6.671.384 4.807.03a6.027 6.027 0 0 1-1.584 2.92" mask="url(#f)"/>
        </g>
        <g transform="translate(10.218 11.306)">
            <mask id="i" fill="#fff">
                <use xlink:href="#g"/>
            </mask>
            <path fill="url(#h)" d="M1.401 1.113a3.381 3.381 0 0 1-.212.21A3.946 3.946 0 0 0 .096 4.047c0 .249.024.49.068.727a6.143 6.143 0 0 0 2.967-1.532c.058-.07.124-.135.196-.19A6.027 6.027 0 0 0 4.91.131a4.124 4.124 0 0 0-.77-.073c-1.057 0-2.019.4-2.739 1.054" mask="url(#i)"/>
        </g>
    </g>

        
    </g>
</svg>
