<svg xmlns="http://www.w3.org/2000/svg" xmlns:xlink="http://www.w3.org/1999/xlink"  width="32" height="39" viewBox="0 0 32 39">

    <g fill="none" fill-rule="evenodd">
        <path fill="#444" d="M17.888 37.062c8.847-7.351 13.27-14.193 13.27-20.524C31.158 6.387 24.37.842 16 .842 7.629.842.842 5.99.842 16.538c0 6.573 4.415 13.424 13.244 20.551a3 3 0 0 0 3.802-.027z"/>
        <path fill="#FFF" fill-rule="nonzero" d="M18.115 37.967a3.368 3.368 0 0 1-4.242.031C4.655 30.637 0 23.493 0 16.538 0 6.163 6.489 0 16 0c9.36 0 16 6.427 16 16.538 0 6.709-4.658 13.837-13.885 21.43zm-1.07-1.3c8.877-7.304 13.27-14.029 13.27-20.13C30.316 7.37 24.442 1.685 16 1.685c-8.6 0-14.316 5.43-14.316 14.854 0 6.345 4.383 13.07 13.24 20.144.622.497 1.506.49 2.121-.015z"/>
    <circle cx="16" cy="16" r="10" stroke="black" stroke-width="0" fill="#fff" />
    <g transform="translate(5 5)" fill="none" fill-rule="evenodd">
        
        <path fill="#003863" d="M15 10.73c-1.298-.883-2.96-.523-3.833.803a2.71 2.71 0 0 1-2.255 1.247c-1.389 0-2.338-.978-2.62-1.988-.003-.01-.004-.018-.009-.028a3.45 3.45 0 0 1-.147-1.105c0-2.417 2.48-5.109 6.052-5.109 3.657 0 5.75 2.785 6.288 4.332a7.704 7.704 0 0 0-7.313-5.285 7.7 7.7 0 0 0-7.7 7.702c0 3.801 2.741 7.055 6.546 7.055 3.032 0 5.072-1.7 6.007-4.045.512-1.28.15-2.788-1.016-3.58"/>
        <path fill="#E3042E" d="M18.524 9.033c-.45-1.51-2.557-4.483-6.337-4.483-3.572 0-6.05 2.692-6.05 5.108 0 .449.026.65.137 1.071a2.265 2.265 0 0 1-.071-.548c0-2.518 2.52-4.261 5.111-4.261a6.35 6.35 0 0 1 6.35 6.349 7.002 7.002 0 0 1-3.88 6.271v.002a7.705 7.705 0 0 0 4.74-9.509"/>
    </g>

        
    </g>
</svg>
