<svg xmlns="http://www.w3.org/2000/svg" xmlns:xlink="http://www.w3.org/1999/xlink"  width="32" height="39" viewBox="0 0 32 39">
    <g fill="none" fill-rule="evenodd">
        <path fill="#F50403" d="M17.888 37.062c8.847-7.351 13.27-14.193 13.27-20.524C31.158 6.387 24.37.842 16 .842 7.629.842.842 5.99.842 16.538c0 6.573 4.415 13.424 13.244 20.551a3 3 0 0 0 3.802-.027z"/>
        <path fill="#FFF" fill-rule="nonzero" d="M18.115 37.967a3.368 3.368 0 0 1-4.242.031C4.655 30.637 0 23.493 0 16.538 0 6.163 6.489 0 16 0c9.36 0 16 6.427 16 16.538 0 6.709-4.658 13.837-13.885 21.43zm-1.07-1.3c8.877-7.304 13.27-14.029 13.27-20.13C30.316 7.37 24.442 1.685 16 1.685c-8.6 0-14.316 5.43-14.316 14.854 0 6.345 4.383 13.07 13.24 20.144.622.497 1.506.49 2.121-.015z"/>
    <circle cx="16" cy="16" r="10" stroke="black" stroke-width="0" fill="#fff" />
    <defs>
        <path id="a" d="M.005.016h12.02v6.571H.004z"/>
        <path id="c" d="M0 .036h6.476v5.469H0z"/>
    </defs>
    <g transform="translate(5 5)" fill="none" fill-rule="evenodd">
        
        <g transform="translate(7.97 8.003)">
            <mask id="b" fill="#fff">
                <use xlink:href="#a"/>
            </mask>
            <path fill="#4C9891" d="M2.939 6.584C1.339 6.425.005 5.298.005 3.711.005 2.124 1.133.76 2.94.837c1.095.047 1.768.647 2.096 1.51 0 0 1.293-1.488 3.367-2.107 0 0 1.617-.387 2.574-.144 0 0 .052.067-.057.072 0 0-2.335-.038-4.033 1.741 0 0-1.478 1.482-1.56 1.558-1.04.97-1.892.818-1.892.818-.585 0-1.059-.46-1.059-1.028 0-.567.474-1.027 1.06-1.027.23 0 .445.071.619.193l.002-.002c-.205-.378-.532-.634-1.023-.634-.981 0-1.729.741-1.695 1.714.066 1.864 2.017 1.809 1.75 1.809 0 0 1.28.18 2.693-1.157.088-.084.684-.697.684-.697a159 159 0 0 1 1.321-1.403C9.791.096 11.9.34 11.9.34s.114-.004.122.047c0 0 .037.082-.13.089 0 0-2.005.243-3.736 2.454 0 0-.972 1.252-1.337 1.68 0 0-1.321 1.827-3.144 1.974 0 0-.666.007-.735 0" mask="url(#b)"/>
        </g>
        <g transform="translate(2 8.313)">
            <mask id="d" fill="#fff">
                <use xlink:href="#c"/>
            </mask>
            <path fill="#6481C0" d="M4.312 1.824l1.276 1.341s-.091 1.327.835 2.24c0 0 .152.177-.06.06 0 0-1.254-1.135-1.926-2.12 0 0-2.085-3.094-4.363-3.16 0 0-.13-.065 0-.13 0 0 2.263-.338 4.238 1.77z" mask="url(#d)"/>
        </g>
        <path fill="#F6AB00" d="M6.893 8.73s1.173.674 1.344.895c0 0-.478.586-.456.873 0 0-2.119-2.376-4.705-2.332 0 0-.13-.042 0-.089 0 0 1.755-.408 3.817.653z"/>
    </g>

        
    </g>
</svg>
