<svg xmlns="http://www.w3.org/2000/svg" xmlns:xlink="http://www.w3.org/1999/xlink"  width="32" height="39" viewBox="0 0 32 39">

    <g fill="none" fill-rule="evenodd">
        <path fill="#FDB00D" d="M17.888 37.062c8.847-7.351 13.27-14.193 13.27-20.524C31.158 6.387 24.37.842 16 .842 7.629.842.842 5.99.842 16.538c0 6.573 4.415 13.424 13.244 20.551a3 3 0 0 0 3.802-.027z"/>
        <path fill="#FFF" fill-rule="nonzero" d="M18.115 37.967a3.368 3.368 0 0 1-4.242.031C4.655 30.637 0 23.493 0 16.538 0 6.163 6.489 0 16 0c9.36 0 16 6.427 16 16.538 0 6.709-4.658 13.837-13.885 21.43zm-1.07-1.3c8.877-7.304 13.27-14.029 13.27-20.13C30.316 7.37 24.442 1.685 16 1.685c-8.6 0-14.316 5.43-14.316 14.854 0 6.345 4.383 13.07 13.24 20.144.622.497 1.506.49 2.121-.015z"/>
    <circle cx="16" cy="16" r="10" stroke="black" stroke-width="0" fill="#fff" />
    <defs>
        <path id="a" d="M.826.03A.815.815 0 0 0 0 .832V12.62h1.944c.455 0 .826-.359.826-.8V8.683l1.574 1.866 1.338 1.591c.27.327.625.479.99.479h2.712L7.63 10.542 5.1 7.536l3.676-4.37H6.77c-.9 0-1.516.264-2.063.884L2.77 6.35V.03H.826z"/>
        <linearGradient id="b" x1="50%" x2="50%" y1="128.211%" y2="-25.378%">
            <stop offset="0%" stop-color="#414142"/>
            <stop offset="100%" stop-color="#262B2C"/>
        </linearGradient>
        <path id="d" d="M.613.059a.576.576 0 0 0-.584.567v11.555h1.7a.576.576 0 0 0 .584-.568V7.877c0-.024.019-.043.044-.043.017 0 .028.01.032.014l1.949 2.318 1.358 1.61c.23.252.534.403.812.403H8.64l-.154-.161c-.159-.167-.782-.96-1.564-1.852-1.035-1.18-2.092-2.53-2.354-2.83.404-.48 3.041-3.614 3.355-3.985l.138-.157H6.45c-.636 0-1.338.31-1.75.773L2.39 6.71a.046.046 0 0 1-.033.015.044.044 0 0 1-.044-.043V.06h-1.7z"/>
        <linearGradient id="e" x1="50%" x2="50%" y1="-22.409%" y2="122.656%">
            <stop offset="0%" stop-color="#58585B"/>
            <stop offset="100%" stop-color="#231F20"/>
        </linearGradient>
        <path id="g" d="M.841.03c-.457 0-.83.36-.83.8v9.348c0 1.446 1.034 2.442 2.533 2.442h2.133c.457 0 .83-.358.83-.8v-1.425H3.527a.732.732 0 0 1-.743-.719V.031H.841z"/>
        <linearGradient id="h" x1="50%" x2="50%" y1="101.72%" y2="-.36%">
            <stop offset="0%" stop-color="#414142"/>
            <stop offset="100%" stop-color="#262B2C"/>
        </linearGradient>
        <path id="j" d="M.04.623v9.348c0 1.317.924 2.21 2.29 2.21h2.132a.578.578 0 0 0 .588-.568v-1.19H3.314c-.544 0-.986-.428-.986-.954V.057L.627.056A.578.578 0 0 0 .04.623"/>
        <linearGradient id="k" x1="50%" x2="50%" y1="0%" y2="98.16%">
            <stop offset="0%" stop-color="#58585B"/>
            <stop offset="100%" stop-color="#231F20"/>
        </linearGradient>
        <path id="m" d="M.102.049h.236v8.257H.1z"/>
        <radialGradient id="n" cx="55.787%" cy="47.321%" r="4839.631%" fx="55.787%" fy="47.321%" gradientTransform="matrix(1 0 0 .03028 0 .459)">
            <stop offset="0%" stop-color="#FEFEFE"/>
            <stop offset="100%" stop-color="#231F20"/>
        </radialGradient>
        <path id="p" d="M.022 4.319v-.035H1.54c.253 0 .524-.238.524-.557V.049h.034v3.678a.58.58 0 0 1-.558.592H.022z"/>
        <radialGradient id="q" cx="91.033%" cy="96.852%" r="85.949%" fx="91.033%" fy="96.852%" gradientTransform="matrix(1 0 0 .48625 0 .498)">
            <stop offset="0%" stop-color="#FEFEFE"/>
            <stop offset="100%" stop-color="#231F20"/>
        </radialGradient>
        <path id="s" d="M.075 3.844H.04V.586c0-.263.28-.53.55-.53h1.738L2.294.09H.59C.338.09.075.34.075.586v3.258z"/>
        <radialGradient id="t" cx="4.661%" cy="3.871%" r="115.638%" fx="4.661%" fy="3.871%" gradientTransform="matrix(1 0 0 .6042 0 .015)">
            <stop offset="0%" stop-color="#FEFEFE"/>
            <stop offset="100%" stop-color="#231F20"/>
        </radialGradient>
        <path id="v" d="M.139.006h.246v6.156H.14z"/>
        <radialGradient id="w" cx="58.365%" cy="47.322%" r="3607.856%" fx="58.365%" fy="47.322%" gradientTransform="matrix(1 0 0 .04061 0 .454)">
            <stop offset="0%" stop-color="#FEFEFE"/>
            <stop offset="100%" stop-color="#231F20"/>
        </radialGradient>
        <path id="y" d="M.006.049H.04c0 .116.001.227.026.33a.925.925 0 0 0 .212.402c.177.202.426.334.813.334l1.666-.002-.001.033H1.115c-.33 0-.574-.092-.757-.246a.95.95 0 0 1-.32-.512 1.462 1.462 0 0 1-.032-.34z"/>
        <radialGradient id="z" cx="30.293%" cy="95.024%" r="118.368%" fx="30.293%" fy="95.024%" gradientTransform="matrix(.39882 0 0 1 .182 0)">
            <stop offset="0%" stop-color="#FEFEFE"/>
            <stop offset="100%" stop-color="#231F20"/>
        </radialGradient>
        <path id="B" d="M4.436 2.147v.034H2.297C.967 2.18.056 1.305.056.024h.035c0 1.262.896 2.122 2.207 2.122l2.138.001z"/>
        <radialGradient id="C" cx="43.97%" cy="95.276%" r="110.882%" fx="43.97%" fy="95.276%" gradientTransform="matrix(.49237 0 0 1 .223 0)">
            <stop offset="0%" stop-color="#FEFEFE"/>
            <stop offset="100%" stop-color="#231F20"/>
        </radialGradient>
        <linearGradient id="E" x1="50.001%" x2="50.001%" y1="99.648%" y2="62.858%">
            <stop offset="0%" stop-color="#3D3B3D"/>
            <stop offset="100%" stop-color="#221E1F"/>
        </linearGradient>
        <linearGradient id="F" x1="50%" x2="43.664%" y1="43.016%" y2="53.928%">
            <stop offset="0%"/>
            <stop offset="100%" stop-color="#3C3A3C"/>
        </linearGradient>
        <path id="G" d="M.051 4.096L.02 4.084 3.415.049h.044C3.119.45.05 4.096.05 4.096z"/>
        <radialGradient id="H" cx="24.34%" cy="76.402%" r="35.417%" fx="24.34%" fy="76.402%" gradientTransform="matrix(1 0 0 .84997 0 .115)">
            <stop offset="0%" stop-color="#FEFEFE"/>
            <stop offset="100%" stop-color="#231F20"/>
        </radialGradient>
        <path id="J" d="M4.007.002s1.176.044 1.59.044C5.25.453 2.142 4.148 2.142 4.148l-2.137-.66L2.312.748"/>
        <path id="L" d="M.017.018c.21.249.56.409.77.409h1.841l.032.04H.786"/>
        <radialGradient id="M" cx="22.961%" cy="99.993%" r="360.705%" fx="22.961%" fy="99.993%" gradientTransform="matrix(.16996 0 0 1 .19 0)">
            <stop offset="0%" stop-color="#FEFEFE"/>
            <stop offset="100%" stop-color="#231F20"/>
        </radialGradient>
        <path id="O" d="M2.105.059v.034H.588C.335.093.064.33.064.65v3.758H.028V.65A.58.58 0 0 1 .588.06h1.517z"/>
        <radialGradient id="P" cx="8.961%" cy="3.149%" r="86.533%" fx="8.961%" fy="3.149%" gradientTransform="matrix(-1 0 0 -.47723 .18 .047)">
            <stop offset="0%" stop-color="#FEFEFE"/>
            <stop offset="100%" stop-color="#231F20"/>
        </radialGradient>
        <path id="R" d="M10.785.582L3.53.585c-.983 0-1.632.336-2.09.874L.045 3.122c.508-.37 1.205-.59 1.917-.59h8.824c1.119 0 2.194-.331 2.194-1.182 0-.849-.101-1.319-.101-1.319s-.526.55-2.093.55M.035 3.133c.002-.002.002.003.002.003l.01-.013-.013.01"/>
        <linearGradient id="S" x1="0%" y1="52.866%" y2="50.466%">
            <stop offset="0%" stop-color="#5C0508"/>
            <stop offset="35.691%" stop-color="#ED2329"/>
            <stop offset="100%" stop-color="#3A0101"/>
        </linearGradient>
        <path id="U" d="M12.806.23c-.006.005-.526.518-2.021.518H3.72c-1.116 0-1.64.438-2.042.912L.055 3.591S.822 2.89 1.95 2.89h8.836c.967 0 1.63-.184 1.971-.544.244-.258.222-.512.222-.513V.055l-.172.175z"/>
        <linearGradient id="V" x1="12.114%" y1="50%" y2="50%">
            <stop offset="0%" stop-color="#D41F28"/>
            <stop offset="13.299%" stop-color="#F57966"/>
            <stop offset="48.197%" stop-color="#ED2329"/>
            <stop offset="100%" stop-color="#D21017"/>
        </linearGradient>
        <path id="X" d="M12.966.061v.002s.004.96-2.181.96h-8.7c-.995 0-1.572.346-2.038.708l.016-.017C.656 1.207 1.28.987 2.085.987h8.7c1.937 0 2.172-.755 2.18-.926z"/>
        <linearGradient id="Y" x1="100%" x2="2.016%" y1="49.489%" y2="50.516%">
            <stop offset="0%" stop-color="#FFF" stop-opacity=".21"/>
            <stop offset="48.541%" stop-color="#FFF"/>
            <stop offset="100%" stop-color="#FFF" stop-opacity=".2"/>
        </linearGradient>
    </defs>
    <g transform="translate(5 5)" fill="none" fill-rule="evenodd">
        
        <g transform="translate(3 5.038)">
            <mask id="c" fill="#fff">
                <use xlink:href="#a"/>
            </mask>
            <path fill="url(#b)" d="M.826.03A.815.815 0 0 0 0 .832V12.62h1.944c.455 0 .826-.359.826-.8V8.683l1.574 1.866 1.338 1.591c.27.327.625.479.99.479h2.712L7.63 10.542 5.1 7.536l3.676-4.37H6.77c-.9 0-1.516.264-2.063.884L2.77 6.35V.03H.826z" mask="url(#c)"/>
        </g>
        <g transform="translate(3.214 5.245)">
            <mask id="f" fill="#fff">
                <use xlink:href="#d"/>
            </mask>
            <path fill="url(#e)" d="M.613.059a.576.576 0 0 0-.584.567v11.555h1.7a.576.576 0 0 0 .584-.568V7.877c0-.024.019-.043.044-.043.017 0 .028.01.032.014l1.949 2.318 1.358 1.61c.23.252.534.403.812.403H8.64l-.154-.161c-.159-.167-.782-.96-1.564-1.852-1.035-1.18-2.092-2.53-2.354-2.83.404-.48 3.041-3.614 3.355-3.985l.138-.157H6.45c-.636 0-1.338.31-1.75.773L2.39 6.71a.046.046 0 0 1-.033.015.044.044 0 0 1-.044-.043V.06h-1.7z" mask="url(#f)"/>
        </g>
        <g transform="translate(13.071 5.038)">
            <mask id="i" fill="#fff">
                <use xlink:href="#g"/>
            </mask>
            <path fill="url(#h)" d="M.841.03c-.457 0-.83.36-.83.8v9.348c0 1.446 1.034 2.442 2.533 2.442h2.133c.457 0 .83-.358.83-.8v-1.425H3.527a.732.732 0 0 1-.743-.719V.031H.841z" mask="url(#i)"/>
        </g>
        <g transform="translate(13.286 5.245)">
            <mask id="l" fill="#fff">
                <use xlink:href="#j"/>
            </mask>
            <path fill="url(#k)" d="M.04.623v9.348c0 1.317.924 2.21 2.29 2.21h2.132a.578.578 0 0 0 .588-.568v-1.19H3.314c-.544 0-.986-.428-.986-.954V.057L.627.056A.578.578 0 0 0 .04.623" mask="url(#l)"/>
        </g>
        <g transform="translate(3.214 9.107)">
            <mask id="o" fill="#fff">
                <use xlink:href="#m"/>
            </mask>
            <path fill="url(#n)" d="M.102 8.306h.236V.049H.1z" mask="url(#o)"/>
        </g>
        <g transform="translate(3.429 13.107)">
            <mask id="r" fill="#fff">
                <use xlink:href="#p"/>
            </mask>
            <path fill="url(#q)" d="M.022 4.319H1.54a.58.58 0 0 0 .558-.592V.049h-.034v3.678c0 .32-.271.557-.524.557H.022v.035z" mask="url(#r)"/>
        </g>
        <g transform="translate(13.286 5.245)">
            <mask id="u" fill="#fff">
                <use xlink:href="#s"/>
            </mask>
            <path fill="url(#t)" d="M.075 3.844V.586C.075.34.338.09.59.09h1.703l.034-.033L.591.056C.319.056.04.323.04.586v3.258h.035z" mask="url(#u)"/>
        </g>
        <g transform="translate(13.286 9.107)">
            <mask id="x" fill="#fff">
                <use xlink:href="#v"/>
            </mask>
            <path fill="url(#w)" d="M.139 6.162h.246V.006H.14z" mask="url(#x)"/>
        </g>
        <g transform="translate(15.571 14.556)">
            <mask id="A" fill="#fff">
                <use xlink:href="#y"/>
            </mask>
            <path fill="url(#z)" d="M.006.049c0 .12.007.234.033.339A.95.95 0 0 0 .358.9c.183.154.427.246.757.246h1.642v-.033l-1.665.002C.705 1.115.456.983.279.781A.925.925 0 0 1 .067.38 1.439 1.439 0 0 1 .041.05H.006z" mask="url(#A)"/>
        </g>
        <g transform="translate(13.286 15.245)">
            <mask id="D" fill="#fff">
                <use xlink:href="#B"/>
            </mask>
            <path fill="url(#C)" d="M4.436 2.147H2.297C.987 2.146.091 1.286.091.023H.056c0 1.28.912 2.157 2.241 2.157h2.14v-.034z" mask="url(#D)"/>
        </g>
        <path fill="url(#E)" d="M10.111 5.977H12.4V4.56H10.11z" transform="translate(3.214 5.245)"/>
        <path fill="url(#F)" fill-opacity=".8" fill-rule="nonzero" d="M3.165 5.785l.598-.7 2.718-.107-.721.93-2.595-.123z" transform="translate(3.214 5.245)"/>
        <g transform="translate(7.714 8.487)">
            <mask id="I" fill="#fff">
                <use xlink:href="#G"/>
            </mask>
            <path fill="url(#H)" d="M.051 4.096S3.12.45 3.46.049h-.045L.02 4.084l.032.012z" mask="url(#I)"/>
        </g>
        <g transform="translate(5.643 8.418)">
            <mask id="K" fill="#fff">
                <use xlink:href="#J"/>
            </mask>
            <path d="M4.007.002C3.393.002 2.71.3 2.312.749L.006 3.488l2.137.66S5.252.453 5.597.046c-.414 0-1.59-.044-1.59-.044" mask="url(#K)"/>
        </g>
        <g transform="translate(8.929 17.038)">
            <mask id="N" fill="#fff">
                <use xlink:href="#L"/>
            </mask>
            <path fill="url(#M)" d="M.017.018c.2.266.506.449.77.449H2.66l-.032-.04H.786c-.21 0-.559-.16-.769-.41" mask="url(#N)"/>
        </g>
        <g transform="translate(3.214 5.245)">
            <mask id="Q" fill="#fff">
                <use xlink:href="#O"/>
            </mask>
            <path fill="url(#P)" d="M2.105.059H.588A.58.58 0 0 0 .029.65v3.758h.035V.65c0-.319.27-.557.524-.557h1.517V.059z" mask="url(#Q)"/>
        </g>
        <g transform="translate(6 7.935)">
            <mask id="T" fill="#fff">
                <use xlink:href="#R"/>
            </mask>
            <path fill="url(#S)" d="M10.785.582L3.53.585c-.983 0-1.632.336-2.09.874L.045 3.122c.508-.37 1.205-.59 1.917-.59h8.824c1.119 0 2.194-.331 2.194-1.182 0-.849-.101-1.319-.101-1.319s-.526.55-2.093.55M.035 3.133c.002-.002.002.003.002.003l.01-.013-.013.01" mask="url(#T)"/>
        </g>
        <g transform="translate(6 7.452)">
            <mask id="W" fill="#fff">
                <use xlink:href="#U"/>
            </mask>
            <path fill="url(#V)" d="M12.806.23c-.006.005-.526.518-2.021.518H3.72c-1.116 0-1.64.438-2.042.912L.055 3.591S.822 2.89 1.95 2.89h8.836c.967 0 1.63-.184 1.971-.544.244-.258.222-.512.222-.513V.055l-.172.175z" mask="url(#W)"/>
        </g>
        <g transform="translate(6 9.314)">
            <mask id="Z" fill="#fff">
                <use xlink:href="#X"/>
            </mask>
            <path fill="url(#Y)" d="M12.966.061c-.01.171-.244.926-2.181.926h-8.7c-.804 0-1.429.22-2.022.727l-.015.017c.465-.362 1.042-.707 2.037-.707h8.7c2.185 0 2.18-.961 2.18-.961V.06z" mask="url(#Z)"/>
        </g>
    </g>

        
    </g>
</svg>
